,dataset,BBHA mejorado,Mejor accuracy (en 5 corridas),Features con mejor accuracy (en 5 corridas),Tiempo de CPU (5 corridas) en segundos
0,Ovarian,0,0.9814,MZ244.95245 | MZ244.66041 | MZ25.589892 | MZ8021.6789 | MZ262.18857,5748.245
1,Ovarian,1,0.9813,MZ244.95245 | MZ244.66041 | MZ247.295 | MZ247.00158 | MZ463.95962 | MZ224.09159 | MZ223.81227 | MZ221.86191 | MZ8004.9707 | MZ243.78535 | MZ8003.3008 | MZ8020.0073 | MZ262.18857 | MZ418.11364,5932.047
2,Leukemia,0,1.0,M84526_at | M92287_at | X61587_at,5474.708
3,Leukemia,1,0.9936,Y00787_s_at | M23197_at | M63138_at | M19045_f_at | D88270_at | J03801_f_at | M11722_at | X82240_rna1_at | M92287_at | U16306_at | M63379_at | M11147_at | M33493_s_at,5568.152
4,Breast,0,0.7809,NM_014095 | Contig2087_RC | NM_015832 | Contig5690_RC | NM_007252 | AL080059 | Contig26291_RC | NM_006794 | NM_016298 | AL133575 | Contig42942_RC | AB032960,5727.517
5,Breast,1,0.8181,AL133616 | Contig8224_RC | Contig5690_RC | NM_020974 | AF119904 | Contig35903_RC | AB032960 | NM_006658 | Contig15219_RC | NM_018308,5709.861
