Dataset Ovarian
	Samples (filas) -> 253 | Features (columnas) -> 15154
	Numero de clases -> 2
Top 50 Features obtenidos por Chi Square -> 
['MZ245.24466' 'MZ244.95245' 'MZ245.53704' 'MZ244.66041' 'MZ244.36855'
 'MZ245.8296' 'MZ246.12233' 'MZ246.41524' 'MZ246.70832' 'MZ247.295'
 'MZ247.00158' 'MZ247.58861' 'MZ247.88239' 'MZ244.07686' 'MZ224.65076'
 'MZ224.37109' 'MZ224.9306' 'MZ463.95962' 'MZ464.36174' 'MZ224.09159'
 'MZ463.55767' 'MZ223.81227' 'MZ221.86191' 'MZ464.76404' 'MZ220.75125'
 'MZ248.17634' 'MZ8011.6519' 'MZ8009.9813' 'MZ8013.3226' 'MZ8014.9935'
 'MZ8008.3109' 'MZ8016.6646' 'MZ225.21061' 'MZ8006.6407' 'MZ220.47402'
 'MZ8004.9707' 'MZ8018.3359' 'MZ417.73207' 'MZ243.78535' 'MZ221.58398'
 'MZ25.589892' 'MZ8003.3008' 'MZ8020.0073' 'MZ463.1559' 'MZ8001.6311'
 'MZ8021.6789' 'MZ29.001246' 'MZ465.16651' 'MZ262.18857' 'MZ418.11364']
Corrida independiente nro 1
Binary Black Hole con 25 iteraciones y 10 estrellas terminado en 736.7200086116791 segundos
Despues de 100 corridas con el subset se obtuvo de "recall" -> 0.9886875 ± 0.00245188065574162
Corrida independiente nro 2
Binary Black Hole con 25 iteraciones y 10 estrellas terminado en 747.1808545589447 segundos
Despues de 100 corridas con el subset se obtuvo de "recall" -> 0.9888125000000002 ± 0.0037806042837091624
Corrida independiente nro 3
Binary Black Hole con 25 iteraciones y 10 estrellas terminado en 747.1032044887543 segundos
Despues de 100 corridas con el subset se obtuvo de "recall" -> 0.9908125000000002 ± 0.003898617543437679
Corrida independiente nro 4
Binary Black Hole con 25 iteraciones y 10 estrellas terminado en 772.6478543281555 segundos
Despues de 100 corridas con el subset se obtuvo de "recall" -> 0.9911176470588238 ± 0.0031224989991991883
Corrida independiente nro 5
Binary Black Hole con 25 iteraciones y 10 estrellas terminado en 747.524795293808 segundos
Despues de 100 corridas con el subset se obtuvo de "recall" -> 0.9917500000000001 ± 0.0045825756949558335
Features obtenidos por el BBHA para el dataset Ovarian (recall = 0.9917500000000001) ->
['MZ8004.9707' 'MZ417.73207' 'MZ25.589892']
Metrica "recall" | Mean -> 0.99 ± 0.001
Dataset Leukemia
	Samples (filas) -> 72 | Features (columnas) -> 7129
	Numero de clases -> 2
Top 50 Features obtenidos por Chi Square -> 
['M27891_at' 'Y00787_s_at' 'U46499_at' 'D88422_at' 'M19507_at' 'X17042_at'
 'M23197_at' 'M84526_at' 'M16038_at' 'X95735_at' 'L09209_s_at' 'M63138_at'
 'X14008_rna1_f_at' 'M96326_rna1_at' 'K01396_at' 'M19045_f_at'
 'M28130_rna1_s_at' 'D88270_at' 'X16546_at' 'J03801_f_at' 'M11722_at'
 'X62320_at' 'M22960_at' 'M81695_s_at' 'M57710_at' 'M21119_s_at'
 'HG3494-HT3688_at' 'U05259_rna1_at' 'X82240_rna1_at' 'M92287_at'
 'M33195_at' 'M15395_at' 'U16306_at' 'U02020_at' 'HG2981-HT3127_s_at'
 'M98399_s_at' 'X64072_s_at' 'U46751_at' 'J03909_at' 'M63379_at'
 'M11147_at' 'J04990_at' 'X59417_at' 'X61587_at' 'D49950_at'
 'U50136_rna1_at' 'L09717_at' 'M83652_s_at' 'M31523_at' 'M33493_s_at']
Corrida independiente nro 1
Binary Black Hole con 25 iteraciones y 10 estrellas terminado en 672.8174228668213 segundos
Despues de 100 corridas con el subset se obtuvo de "recall" -> 0.9933333333333333 ± 0.016666666666666684
Corrida independiente nro 2
Binary Black Hole con 25 iteraciones y 10 estrellas terminado en 663.5543661117554 segundos
Despues de 100 corridas con el subset se obtuvo de "recall" -> 0.987 ± 0.016258331197676314
Corrida independiente nro 3
Binary Black Hole con 25 iteraciones y 10 estrellas terminado en 686.4358072280884 segundos
Despues de 100 corridas con el subset se obtuvo de "recall" -> 0.9666666666666667 ± 1.1102230246251565e-16
Corrida independiente nro 4
Binary Black Hole con 25 iteraciones y 10 estrellas terminado en 652.2441802024841 segundos
Despues de 100 corridas con el subset se obtuvo de "recall" -> 0.993 ± 0.01734935157289749
Corrida independiente nro 5
Binary Black Hole con 25 iteraciones y 10 estrellas terminado en 693.332967042923 segundos
Despues de 100 corridas con el subset se obtuvo de "recall" -> 0.9285000000000001 ± 0.03458443773336979
Features obtenidos por el BBHA para el dataset Leukemia (recall = 0.9933333333333333) ->
['L09209_s_at' 'D88270_at']
Metrica "recall" | Mean -> 0.974 ± 0.025
Dataset Breast
	Samples (filas) -> 97 | Features (columnas) -> 24481
	Numero de clases -> 2
Top 50 Features obtenidos por Chi Square -> 
['NM_014095' 'AL133616' 'Contig2087_RC' 'Contig23158_RC' 'Contig8224_RC'
 'NM_015832' 'Contig5690_RC' 'Contig9813_RC' 'Contig14581_RC'
 'Contig35256' 'NM_018580' 'NM_020974' 'NM_006217' 'Contig33441_RC'
 'Contig43019_RC' 'NM_007252' 'AF119904' 'NM_018432' 'NM_016529' 'L17325'
 'Contig15628_RC' 'AL080059' 'Contig26291_RC' 'NM_014625' 'Contig35903_RC'
 'NM_017658' 'NM_006794' 'Contig21865_RC' 'Contig47635_RC'
 'Contig55725_RC' 'Contig36093_RC' 'Contig45932_RC' 'Contig43226'
 'Contig17394_RC' 'NM_014926' 'NM_016298' 'Contig39638_RC' 'AL133575'
 'Contig42942_RC' 'AK000053' 'NM_006174' 'AL117508' 'AB032960'
 'Contig14701_RC' 'Contig39984' 'NM_006658' 'Contig38855_RC'
 'Contig15219_RC' 'NM_018308' 'Contig27326_RC']
Corrida independiente nro 1
Binary Black Hole con 25 iteraciones y 10 estrellas terminado en 726.3285410404205 segundos
Despues de 100 corridas con el subset se obtuvo de "recall" -> 0.8043666666666666 ± 0.02174955938251015
Corrida independiente nro 2
Binary Black Hole con 25 iteraciones y 10 estrellas terminado en 728.3307626247406 segundos
Despues de 100 corridas con el subset se obtuvo de "recall" -> 0.8548666666666667 ± 0.014850514394383037
Corrida independiente nro 3
Binary Black Hole con 25 iteraciones y 10 estrellas terminado en 730.7725937366486 segundos
Despues de 100 corridas con el subset se obtuvo de "recall" -> 0.8469333333333333 ± 0.01255813149583435
Corrida independiente nro 4
Binary Black Hole con 25 iteraciones y 10 estrellas terminado en 722.0152335166931 segundos
Despues de 100 corridas con el subset se obtuvo de "recall" -> 0.8167333333333336 ± 0.013457587698643029
Corrida independiente nro 5
Binary Black Hole con 25 iteraciones y 10 estrellas terminado en 730.2675113677979 segundos
Despues de 100 corridas con el subset se obtuvo de "recall" -> 0.7996333333333334 ± 0.023635636935215757
Features obtenidos por el BBHA para el dataset Breast (recall = 0.8548666666666667) ->
['Contig14581_RC' 'AF119904' 'AL080059' 'Contig36093_RC' 'Contig14701_RC'
 'Contig39984' 'NM_006658' 'NM_018308']
Metrica "recall" | Mean -> 0.825 ± 0.022
Dataset Ovarian
	Samples (filas) -> 253 | Features (columnas) -> 15154
	Numero de clases -> 2
Top 50 Features obtenidos por Chi Square -> 
['MZ245.24466' 'MZ244.95245' 'MZ245.53704' 'MZ244.66041' 'MZ244.36855'
 'MZ245.8296' 'MZ246.12233' 'MZ246.41524' 'MZ246.70832' 'MZ247.295'
 'MZ247.00158' 'MZ247.58861' 'MZ247.88239' 'MZ244.07686' 'MZ224.65076'
 'MZ224.37109' 'MZ224.9306' 'MZ463.95962' 'MZ464.36174' 'MZ224.09159'
 'MZ463.55767' 'MZ223.81227' 'MZ221.86191' 'MZ464.76404' 'MZ220.75125'
 'MZ248.17634' 'MZ8011.6519' 'MZ8009.9813' 'MZ8013.3226' 'MZ8014.9935'
 'MZ8008.3109' 'MZ8016.6646' 'MZ225.21061' 'MZ8006.6407' 'MZ220.47402'
 'MZ8004.9707' 'MZ8018.3359' 'MZ417.73207' 'MZ243.78535' 'MZ221.58398'
 'MZ25.589892' 'MZ8003.3008' 'MZ8020.0073' 'MZ463.1559' 'MZ8001.6311'
 'MZ8021.6789' 'MZ29.001246' 'MZ465.16651' 'MZ262.18857' 'MZ418.11364']
Corrida independiente nro 1
Binary Black Hole con 25 iteraciones y 10 estrellas terminado en 751.2757687568665 segundos
Despues de 100 corridas con el subset se obtuvo de "make_scorer(matthews_corrcoef)" -> 0.9614874669872533 ± 0.004543893886734721
Corrida independiente nro 2
Binary Black Hole con 25 iteraciones y 10 estrellas terminado en 761.5044548511505 segundos
Despues de 100 corridas con el subset se obtuvo de "make_scorer(matthews_corrcoef)" -> 0.9244194690813912 ± 0.0010784012481860285
Corrida independiente nro 3
Binary Black Hole con 25 iteraciones y 10 estrellas terminado en 755.4855778217316 segundos
Despues de 100 corridas con el subset se obtuvo de "make_scorer(matthews_corrcoef)" -> 0.976719747108123 ± 0.003299140965078756
Corrida independiente nro 4
Binary Black Hole con 25 iteraciones y 10 estrellas terminado en 735.2781231403351 segundos
Despues de 100 corridas con el subset se obtuvo de "make_scorer(matthews_corrcoef)" -> 0.9503542093967385 ± 0.0029856890786812795
Corrida independiente nro 5
Binary Black Hole con 25 iteraciones y 10 estrellas terminado en 744.7768952846527 segundos
Despues de 100 corridas con el subset se obtuvo de "make_scorer(matthews_corrcoef)" -> 0.9548193204024841 ± 0.004505545337709736
Features obtenidos por el BBHA para el dataset Ovarian (make_scorer(matthews_corrcoef) = 0.976719747108123) ->
['MZ243.78535' 'MZ25.589892' 'MZ262.18857']
Metrica "make_scorer(matthews_corrcoef)" | Mean -> 0.954 ± 0.017
Dataset Leukemia
	Samples (filas) -> 72 | Features (columnas) -> 7129
	Numero de clases -> 2
Top 50 Features obtenidos por Chi Square -> 
['M27891_at' 'Y00787_s_at' 'U46499_at' 'D88422_at' 'M19507_at' 'X17042_at'
 'M23197_at' 'M84526_at' 'M16038_at' 'X95735_at' 'L09209_s_at' 'M63138_at'
 'X14008_rna1_f_at' 'M96326_rna1_at' 'K01396_at' 'M19045_f_at'
 'M28130_rna1_s_at' 'D88270_at' 'X16546_at' 'J03801_f_at' 'M11722_at'
 'X62320_at' 'M22960_at' 'M81695_s_at' 'M57710_at' 'M21119_s_at'
 'HG3494-HT3688_at' 'U05259_rna1_at' 'X82240_rna1_at' 'M92287_at'
 'M33195_at' 'M15395_at' 'U16306_at' 'U02020_at' 'HG2981-HT3127_s_at'
 'M98399_s_at' 'X64072_s_at' 'U46751_at' 'J03909_at' 'M63379_at'
 'M11147_at' 'J04990_at' 'X59417_at' 'X61587_at' 'D49950_at'
 'U50136_rna1_at' 'L09717_at' 'M83652_s_at' 'M31523_at' 'M33493_s_at']
Corrida independiente nro 1
/home/genaro/Proyectos/Multiomics/Survival_analysis/venv/lib/python3.7/site-packages/sklearn/metrics/_classification.py:846: RuntimeWarning: invalid value encountered in double_scalars
  mcc = cov_ytyp / np.sqrt(cov_ytyt * cov_ypyp)
Binary Black Hole con 25 iteraciones y 10 estrellas terminado en 703.3351576328278 segundos
Despues de 100 corridas con el subset se obtuvo de "make_scorer(matthews_corrcoef)" -> 0.9654584646412876 ± 0.01136121141468249
Corrida independiente nro 2
/home/genaro/Proyectos/Multiomics/Survival_analysis/venv/lib/python3.7/site-packages/sklearn/metrics/_classification.py:846: RuntimeWarning: invalid value encountered in double_scalars
  mcc = cov_ytyp / np.sqrt(cov_ytyt * cov_ypyp)
/home/genaro/Proyectos/Multiomics/Survival_analysis/venv/lib/python3.7/site-packages/sklearn/metrics/_classification.py:846: RuntimeWarning: invalid value encountered in double_scalars
  mcc = cov_ytyp / np.sqrt(cov_ytyt * cov_ypyp)
/home/genaro/Proyectos/Multiomics/Survival_analysis/venv/lib/python3.7/site-packages/sklearn/metrics/_classification.py:846: RuntimeWarning: invalid value encountered in double_scalars
  mcc = cov_ytyp / np.sqrt(cov_ytyt * cov_ypyp)
/home/genaro/Proyectos/Multiomics/Survival_analysis/venv/lib/python3.7/site-packages/sklearn/metrics/_classification.py:846: RuntimeWarning: invalid value encountered in double_scalars
  mcc = cov_ytyp / np.sqrt(cov_ytyt * cov_ypyp)
/home/genaro/Proyectos/Multiomics/Survival_analysis/venv/lib/python3.7/site-packages/sklearn/metrics/_classification.py:846: RuntimeWarning: invalid value encountered in double_scalars
  mcc = cov_ytyp / np.sqrt(cov_ytyt * cov_ypyp)
/home/genaro/Proyectos/Multiomics/Survival_analysis/venv/lib/python3.7/site-packages/sklearn/metrics/_classification.py:846: RuntimeWarning: invalid value encountered in double_scalars
  mcc = cov_ytyp / np.sqrt(cov_ytyt * cov_ypyp)
Binary Black Hole con 25 iteraciones y 10 estrellas terminado en 700.8868978023529 segundos
Despues de 100 corridas con el subset se obtuvo de "make_scorer(matthews_corrcoef)" -> 1.0 ± 0.0
Corrida independiente nro 3
/home/genaro/Proyectos/Multiomics/Survival_analysis/venv/lib/python3.7/site-packages/sklearn/metrics/_classification.py:846: RuntimeWarning: invalid value encountered in double_scalars
  mcc = cov_ytyp / np.sqrt(cov_ytyt * cov_ypyp)
Binary Black Hole con 25 iteraciones y 10 estrellas terminado en 694.5948119163513 segundos
Despues de 100 corridas con el subset se obtuvo de "make_scorer(matthews_corrcoef)" -> 0.9456901977272655 ± 0.012882485492666377
Corrida independiente nro 4
/home/genaro/Proyectos/Multiomics/Survival_analysis/venv/lib/python3.7/site-packages/sklearn/metrics/_classification.py:846: RuntimeWarning: invalid value encountered in double_scalars
  mcc = cov_ytyp / np.sqrt(cov_ytyt * cov_ypyp)
/home/genaro/Proyectos/Multiomics/Survival_analysis/venv/lib/python3.7/site-packages/sklearn/metrics/_classification.py:846: RuntimeWarning: invalid value encountered in double_scalars
  mcc = cov_ytyp / np.sqrt(cov_ytyt * cov_ypyp)
/home/genaro/Proyectos/Multiomics/Survival_analysis/venv/lib/python3.7/site-packages/sklearn/metrics/_classification.py:846: RuntimeWarning: invalid value encountered in double_scalars
  mcc = cov_ytyp / np.sqrt(cov_ytyt * cov_ypyp)
/home/genaro/Proyectos/Multiomics/Survival_analysis/venv/lib/python3.7/site-packages/sklearn/metrics/_classification.py:846: RuntimeWarning: invalid value encountered in double_scalars
  mcc = cov_ytyp / np.sqrt(cov_ytyt * cov_ypyp)
/home/genaro/Proyectos/Multiomics/Survival_analysis/venv/lib/python3.7/site-packages/sklearn/metrics/_classification.py:846: RuntimeWarning: invalid value encountered in double_scalars
  mcc = cov_ytyp / np.sqrt(cov_ytyt * cov_ypyp)
/home/genaro/Proyectos/Multiomics/Survival_analysis/venv/lib/python3.7/site-packages/sklearn/metrics/_classification.py:846: RuntimeWarning: invalid value encountered in double_scalars
  mcc = cov_ytyp / np.sqrt(cov_ytyt * cov_ypyp)
/home/genaro/Proyectos/Multiomics/Survival_analysis/venv/lib/python3.7/site-packages/sklearn/metrics/_classification.py:846: RuntimeWarning: invalid value encountered in double_scalars
  mcc = cov_ytyp / np.sqrt(cov_ytyt * cov_ypyp)
/home/genaro/Proyectos/Multiomics/Survival_analysis/venv/lib/python3.7/site-packages/sklearn/metrics/_classification.py:846: RuntimeWarning: invalid value encountered in double_scalars
  mcc = cov_ytyp / np.sqrt(cov_ytyt * cov_ypyp)
/home/genaro/Proyectos/Multiomics/Survival_analysis/venv/lib/python3.7/site-packages/sklearn/metrics/_classification.py:846: RuntimeWarning: invalid value encountered in double_scalars
  mcc = cov_ytyp / np.sqrt(cov_ytyt * cov_ypyp)
/home/genaro/Proyectos/Multiomics/Survival_analysis/venv/lib/python3.7/site-packages/sklearn/metrics/_classification.py:846: RuntimeWarning: invalid value encountered in double_scalars
  mcc = cov_ytyp / np.sqrt(cov_ytyt * cov_ypyp)
Binary Black Hole con 25 iteraciones y 10 estrellas terminado en 697.5988004207611 segundos
Despues de 100 corridas con el subset se obtuvo de "make_scorer(matthews_corrcoef)" -> 0.9184395003862226 ± 0.017258557265382564
Corrida independiente nro 5
/home/genaro/Proyectos/Multiomics/Survival_analysis/venv/lib/python3.7/site-packages/sklearn/metrics/_classification.py:846: RuntimeWarning: invalid value encountered in double_scalars
  mcc = cov_ytyp / np.sqrt(cov_ytyt * cov_ypyp)
/home/genaro/Proyectos/Multiomics/Survival_analysis/venv/lib/python3.7/site-packages/sklearn/metrics/_classification.py:846: RuntimeWarning: invalid value encountered in double_scalars
  mcc = cov_ytyp / np.sqrt(cov_ytyt * cov_ypyp)
Binary Black Hole con 25 iteraciones y 10 estrellas terminado en 702.8668527603149 segundos
Despues de 100 corridas con el subset se obtuvo de "make_scorer(matthews_corrcoef)" -> 0.975539308481385 ± 0.016395513842332357
Features obtenidos por el BBHA para el dataset Leukemia (make_scorer(matthews_corrcoef) = 1.0) ->
['M27891_at' 'Y00787_s_at' 'U05259_rna1_at' 'M92287_at' 'X61587_at'
 'M31523_at']
Metrica "make_scorer(matthews_corrcoef)" | Mean -> 0.961 ± 0.028
Dataset Breast
	Samples (filas) -> 97 | Features (columnas) -> 24481
	Numero de clases -> 2
Top 50 Features obtenidos por Chi Square -> 
['NM_014095' 'AL133616' 'Contig2087_RC' 'Contig23158_RC' 'Contig8224_RC'
 'NM_015832' 'Contig5690_RC' 'Contig9813_RC' 'Contig14581_RC'
 'Contig35256' 'NM_018580' 'NM_020974' 'NM_006217' 'Contig33441_RC'
 'Contig43019_RC' 'NM_007252' 'AF119904' 'NM_018432' 'NM_016529' 'L17325'
 'Contig15628_RC' 'AL080059' 'Contig26291_RC' 'NM_014625' 'Contig35903_RC'
 'NM_017658' 'NM_006794' 'Contig21865_RC' 'Contig47635_RC'
 'Contig55725_RC' 'Contig36093_RC' 'Contig45932_RC' 'Contig43226'
 'Contig17394_RC' 'NM_014926' 'NM_016298' 'Contig39638_RC' 'AL133575'
 'Contig42942_RC' 'AK000053' 'NM_006174' 'AL117508' 'AB032960'
 'Contig14701_RC' 'Contig39984' 'NM_006658' 'Contig38855_RC'
 'Contig15219_RC' 'NM_018308' 'Contig27326_RC']
Corrida independiente nro 1
/home/genaro/Proyectos/Multiomics/Survival_analysis/venv/lib/python3.7/site-packages/sklearn/metrics/_classification.py:846: RuntimeWarning: invalid value encountered in double_scalars
  mcc = cov_ytyp / np.sqrt(cov_ytyt * cov_ypyp)
/home/genaro/Proyectos/Multiomics/Survival_analysis/venv/lib/python3.7/site-packages/sklearn/metrics/_classification.py:846: RuntimeWarning: invalid value encountered in double_scalars
  mcc = cov_ytyp / np.sqrt(cov_ytyt * cov_ypyp)
/home/genaro/Proyectos/Multiomics/Survival_analysis/venv/lib/python3.7/site-packages/sklearn/metrics/_classification.py:846: RuntimeWarning: invalid value encountered in double_scalars
  mcc = cov_ytyp / np.sqrt(cov_ytyt * cov_ypyp)
/home/genaro/Proyectos/Multiomics/Survival_analysis/venv/lib/python3.7/site-packages/sklearn/metrics/_classification.py:846: RuntimeWarning: invalid value encountered in double_scalars
  mcc = cov_ytyp / np.sqrt(cov_ytyt * cov_ypyp)
/home/genaro/Proyectos/Multiomics/Survival_analysis/venv/lib/python3.7/site-packages/sklearn/metrics/_classification.py:846: RuntimeWarning: invalid value encountered in double_scalars
  mcc = cov_ytyp / np.sqrt(cov_ytyt * cov_ypyp)
/home/genaro/Proyectos/Multiomics/Survival_analysis/venv/lib/python3.7/site-packages/sklearn/metrics/_classification.py:846: RuntimeWarning: invalid value encountered in double_scalars
  mcc = cov_ytyp / np.sqrt(cov_ytyt * cov_ypyp)
/home/genaro/Proyectos/Multiomics/Survival_analysis/venv/lib/python3.7/site-packages/sklearn/metrics/_classification.py:846: RuntimeWarning: invalid value encountered in double_scalars
  mcc = cov_ytyp / np.sqrt(cov_ytyt * cov_ypyp)
/home/genaro/Proyectos/Multiomics/Survival_analysis/venv/lib/python3.7/site-packages/sklearn/metrics/_classification.py:846: RuntimeWarning: invalid value encountered in double_scalars
  mcc = cov_ytyp / np.sqrt(cov_ytyt * cov_ypyp)
/home/genaro/Proyectos/Multiomics/Survival_analysis/venv/lib/python3.7/site-packages/sklearn/metrics/_classification.py:846: RuntimeWarning: invalid value encountered in double_scalars
  mcc = cov_ytyp / np.sqrt(cov_ytyt * cov_ypyp)
/home/genaro/Proyectos/Multiomics/Survival_analysis/venv/lib/python3.7/site-packages/sklearn/metrics/_classification.py:846: RuntimeWarning: invalid value encountered in double_scalars
  mcc = cov_ytyp / np.sqrt(cov_ytyt * cov_ypyp)
/home/genaro/Proyectos/Multiomics/Survival_analysis/venv/lib/python3.7/site-packages/sklearn/metrics/_classification.py:846: RuntimeWarning: invalid value encountered in double_scalars
  mcc = cov_ytyp / np.sqrt(cov_ytyt * cov_ypyp)
/home/genaro/Proyectos/Multiomics/Survival_analysis/venv/lib/python3.7/site-packages/sklearn/metrics/_classification.py:846: RuntimeWarning: invalid value encountered in double_scalars
  mcc = cov_ytyp / np.sqrt(cov_ytyt * cov_ypyp)
/home/genaro/Proyectos/Multiomics/Survival_analysis/venv/lib/python3.7/site-packages/sklearn/metrics/_classification.py:846: RuntimeWarning: invalid value encountered in double_scalars
  mcc = cov_ytyp / np.sqrt(cov_ytyt * cov_ypyp)
/home/genaro/Proyectos/Multiomics/Survival_analysis/venv/lib/python3.7/site-packages/sklearn/metrics/_classification.py:846: RuntimeWarning: invalid value encountered in double_scalars
  mcc = cov_ytyp / np.sqrt(cov_ytyt * cov_ypyp)
Binary Black Hole con 25 iteraciones y 10 estrellas terminado en 724.8257098197937 segundos
Despues de 100 corridas con el subset se obtuvo de "make_scorer(matthews_corrcoef)" -> 0.5873588010767626 ± 0.02937879991656654
Corrida independiente nro 2
/home/genaro/Proyectos/Multiomics/Survival_analysis/venv/lib/python3.7/site-packages/sklearn/metrics/_classification.py:846: RuntimeWarning: invalid value encountered in double_scalars
  mcc = cov_ytyp / np.sqrt(cov_ytyt * cov_ypyp)
/home/genaro/Proyectos/Multiomics/Survival_analysis/venv/lib/python3.7/site-packages/sklearn/metrics/_classification.py:846: RuntimeWarning: invalid value encountered in double_scalars
  mcc = cov_ytyp / np.sqrt(cov_ytyt * cov_ypyp)
/home/genaro/Proyectos/Multiomics/Survival_analysis/venv/lib/python3.7/site-packages/sklearn/metrics/_classification.py:846: RuntimeWarning: invalid value encountered in double_scalars
  mcc = cov_ytyp / np.sqrt(cov_ytyt * cov_ypyp)
/home/genaro/Proyectos/Multiomics/Survival_analysis/venv/lib/python3.7/site-packages/sklearn/metrics/_classification.py:846: RuntimeWarning: invalid value encountered in double_scalars
  mcc = cov_ytyp / np.sqrt(cov_ytyt * cov_ypyp)
/home/genaro/Proyectos/Multiomics/Survival_analysis/venv/lib/python3.7/site-packages/sklearn/metrics/_classification.py:846: RuntimeWarning: invalid value encountered in double_scalars
  mcc = cov_ytyp / np.sqrt(cov_ytyt * cov_ypyp)
/home/genaro/Proyectos/Multiomics/Survival_analysis/venv/lib/python3.7/site-packages/sklearn/metrics/_classification.py:846: RuntimeWarning: invalid value encountered in double_scalars
  mcc = cov_ytyp / np.sqrt(cov_ytyt * cov_ypyp)
/home/genaro/Proyectos/Multiomics/Survival_analysis/venv/lib/python3.7/site-packages/sklearn/metrics/_classification.py:846: RuntimeWarning: invalid value encountered in double_scalars
  mcc = cov_ytyp / np.sqrt(cov_ytyt * cov_ypyp)
/home/genaro/Proyectos/Multiomics/Survival_analysis/venv/lib/python3.7/site-packages/sklearn/metrics/_classification.py:846: RuntimeWarning: invalid value encountered in double_scalars
  mcc = cov_ytyp / np.sqrt(cov_ytyt * cov_ypyp)
/home/genaro/Proyectos/Multiomics/Survival_analysis/venv/lib/python3.7/site-packages/sklearn/metrics/_classification.py:846: RuntimeWarning: invalid value encountered in double_scalars
  mcc = cov_ytyp / np.sqrt(cov_ytyt * cov_ypyp)
/home/genaro/Proyectos/Multiomics/Survival_analysis/venv/lib/python3.7/site-packages/sklearn/metrics/_classification.py:846: RuntimeWarning: invalid value encountered in double_scalars
  mcc = cov_ytyp / np.sqrt(cov_ytyt * cov_ypyp)
/home/genaro/Proyectos/Multiomics/Survival_analysis/venv/lib/python3.7/site-packages/sklearn/metrics/_classification.py:846: RuntimeWarning: invalid value encountered in double_scalars
  mcc = cov_ytyp / np.sqrt(cov_ytyt * cov_ypyp)
/home/genaro/Proyectos/Multiomics/Survival_analysis/venv/lib/python3.7/site-packages/sklearn/metrics/_classification.py:846: RuntimeWarning: invalid value encountered in double_scalars
  mcc = cov_ytyp / np.sqrt(cov_ytyt * cov_ypyp)
/home/genaro/Proyectos/Multiomics/Survival_analysis/venv/lib/python3.7/site-packages/sklearn/metrics/_classification.py:846: RuntimeWarning: invalid value encountered in double_scalars
  mcc = cov_ytyp / np.sqrt(cov_ytyt * cov_ypyp)
/home/genaro/Proyectos/Multiomics/Survival_analysis/venv/lib/python3.7/site-packages/sklearn/metrics/_classification.py:846: RuntimeWarning: invalid value encountered in double_scalars
  mcc = cov_ytyp / np.sqrt(cov_ytyt * cov_ypyp)
Binary Black Hole con 25 iteraciones y 10 estrellas terminado en 728.8245289325714 segundos
Despues de 100 corridas con el subset se obtuvo de "make_scorer(matthews_corrcoef)" -> 0.615628249627662 ± 0.027399300476870746
Corrida independiente nro 3
/home/genaro/Proyectos/Multiomics/Survival_analysis/venv/lib/python3.7/site-packages/sklearn/metrics/_classification.py:846: RuntimeWarning: invalid value encountered in double_scalars
  mcc = cov_ytyp / np.sqrt(cov_ytyt * cov_ypyp)
/home/genaro/Proyectos/Multiomics/Survival_analysis/venv/lib/python3.7/site-packages/sklearn/metrics/_classification.py:846: RuntimeWarning: invalid value encountered in double_scalars
  mcc = cov_ytyp / np.sqrt(cov_ytyt * cov_ypyp)
/home/genaro/Proyectos/Multiomics/Survival_analysis/venv/lib/python3.7/site-packages/sklearn/metrics/_classification.py:846: RuntimeWarning: invalid value encountered in double_scalars
  mcc = cov_ytyp / np.sqrt(cov_ytyt * cov_ypyp)
/home/genaro/Proyectos/Multiomics/Survival_analysis/venv/lib/python3.7/site-packages/sklearn/metrics/_classification.py:846: RuntimeWarning: invalid value encountered in double_scalars
  mcc = cov_ytyp / np.sqrt(cov_ytyt * cov_ypyp)
/home/genaro/Proyectos/Multiomics/Survival_analysis/venv/lib/python3.7/site-packages/sklearn/metrics/_classification.py:846: RuntimeWarning: invalid value encountered in double_scalars
  mcc = cov_ytyp / np.sqrt(cov_ytyt * cov_ypyp)
/home/genaro/Proyectos/Multiomics/Survival_analysis/venv/lib/python3.7/site-packages/sklearn/metrics/_classification.py:846: RuntimeWarning: invalid value encountered in double_scalars
  mcc = cov_ytyp / np.sqrt(cov_ytyt * cov_ypyp)
/home/genaro/Proyectos/Multiomics/Survival_analysis/venv/lib/python3.7/site-packages/sklearn/metrics/_classification.py:846: RuntimeWarning: invalid value encountered in double_scalars
  mcc = cov_ytyp / np.sqrt(cov_ytyt * cov_ypyp)
/home/genaro/Proyectos/Multiomics/Survival_analysis/venv/lib/python3.7/site-packages/sklearn/metrics/_classification.py:846: RuntimeWarning: invalid value encountered in double_scalars
  mcc = cov_ytyp / np.sqrt(cov_ytyt * cov_ypyp)
/home/genaro/Proyectos/Multiomics/Survival_analysis/venv/lib/python3.7/site-packages/sklearn/metrics/_classification.py:846: RuntimeWarning: invalid value encountered in double_scalars
  mcc = cov_ytyp / np.sqrt(cov_ytyt * cov_ypyp)
Binary Black Hole con 25 iteraciones y 10 estrellas terminado en 729.4188323020935 segundos
Despues de 100 corridas con el subset se obtuvo de "make_scorer(matthews_corrcoef)" -> 0.6740311942111004 ± 0.018370472268033806
Corrida independiente nro 4
/home/genaro/Proyectos/Multiomics/Survival_analysis/venv/lib/python3.7/site-packages/sklearn/metrics/_classification.py:846: RuntimeWarning: invalid value encountered in double_scalars
  mcc = cov_ytyp / np.sqrt(cov_ytyt * cov_ypyp)
/home/genaro/Proyectos/Multiomics/Survival_analysis/venv/lib/python3.7/site-packages/sklearn/metrics/_classification.py:846: RuntimeWarning: invalid value encountered in double_scalars
  mcc = cov_ytyp / np.sqrt(cov_ytyt * cov_ypyp)
/home/genaro/Proyectos/Multiomics/Survival_analysis/venv/lib/python3.7/site-packages/sklearn/metrics/_classification.py:846: RuntimeWarning: invalid value encountered in double_scalars
  mcc = cov_ytyp / np.sqrt(cov_ytyt * cov_ypyp)
/home/genaro/Proyectos/Multiomics/Survival_analysis/venv/lib/python3.7/site-packages/sklearn/metrics/_classification.py:846: RuntimeWarning: invalid value encountered in double_scalars
  mcc = cov_ytyp / np.sqrt(cov_ytyt * cov_ypyp)
/home/genaro/Proyectos/Multiomics/Survival_analysis/venv/lib/python3.7/site-packages/sklearn/metrics/_classification.py:846: RuntimeWarning: invalid value encountered in double_scalars
  mcc = cov_ytyp / np.sqrt(cov_ytyt * cov_ypyp)
/home/genaro/Proyectos/Multiomics/Survival_analysis/venv/lib/python3.7/site-packages/sklearn/metrics/_classification.py:846: RuntimeWarning: invalid value encountered in double_scalars
  mcc = cov_ytyp / np.sqrt(cov_ytyt * cov_ypyp)
Binary Black Hole con 25 iteraciones y 10 estrellas terminado en 729.699060678482 segundos
Despues de 100 corridas con el subset se obtuvo de "make_scorer(matthews_corrcoef)" -> 0.19757723075460656 ± 0.05622821242865381
Corrida independiente nro 5
/home/genaro/Proyectos/Multiomics/Survival_analysis/venv/lib/python3.7/site-packages/sklearn/metrics/_classification.py:846: RuntimeWarning: invalid value encountered in double_scalars
  mcc = cov_ytyp / np.sqrt(cov_ytyt * cov_ypyp)
/home/genaro/Proyectos/Multiomics/Survival_analysis/venv/lib/python3.7/site-packages/sklearn/metrics/_classification.py:846: RuntimeWarning: invalid value encountered in double_scalars
  mcc = cov_ytyp / np.sqrt(cov_ytyt * cov_ypyp)
/home/genaro/Proyectos/Multiomics/Survival_analysis/venv/lib/python3.7/site-packages/sklearn/metrics/_classification.py:846: RuntimeWarning: invalid value encountered in double_scalars
  mcc = cov_ytyp / np.sqrt(cov_ytyt * cov_ypyp)
/home/genaro/Proyectos/Multiomics/Survival_analysis/venv/lib/python3.7/site-packages/sklearn/metrics/_classification.py:846: RuntimeWarning: invalid value encountered in double_scalars
  mcc = cov_ytyp / np.sqrt(cov_ytyt * cov_ypyp)
/home/genaro/Proyectos/Multiomics/Survival_analysis/venv/lib/python3.7/site-packages/sklearn/metrics/_classification.py:846: RuntimeWarning: invalid value encountered in double_scalars
  mcc = cov_ytyp / np.sqrt(cov_ytyt * cov_ypyp)
/home/genaro/Proyectos/Multiomics/Survival_analysis/venv/lib/python3.7/site-packages/sklearn/metrics/_classification.py:846: RuntimeWarning: invalid value encountered in double_scalars
  mcc = cov_ytyp / np.sqrt(cov_ytyt * cov_ypyp)
/home/genaro/Proyectos/Multiomics/Survival_analysis/venv/lib/python3.7/site-packages/sklearn/metrics/_classification.py:846: RuntimeWarning: invalid value encountered in double_scalars
  mcc = cov_ytyp / np.sqrt(cov_ytyt * cov_ypyp)
/home/genaro/Proyectos/Multiomics/Survival_analysis/venv/lib/python3.7/site-packages/sklearn/metrics/_classification.py:846: RuntimeWarning: invalid value encountered in double_scalars
  mcc = cov_ytyp / np.sqrt(cov_ytyt * cov_ypyp)
/home/genaro/Proyectos/Multiomics/Survival_analysis/venv/lib/python3.7/site-packages/sklearn/metrics/_classification.py:846: RuntimeWarning: invalid value encountered in double_scalars
  mcc = cov_ytyp / np.sqrt(cov_ytyt * cov_ypyp)
/home/genaro/Proyectos/Multiomics/Survival_analysis/venv/lib/python3.7/site-packages/sklearn/metrics/_classification.py:846: RuntimeWarning: invalid value encountered in double_scalars
  mcc = cov_ytyp / np.sqrt(cov_ytyt * cov_ypyp)
/home/genaro/Proyectos/Multiomics/Survival_analysis/venv/lib/python3.7/site-packages/sklearn/metrics/_classification.py:846: RuntimeWarning: invalid value encountered in double_scalars
  mcc = cov_ytyp / np.sqrt(cov_ytyt * cov_ypyp)
/home/genaro/Proyectos/Multiomics/Survival_analysis/venv/lib/python3.7/site-packages/sklearn/metrics/_classification.py:846: RuntimeWarning: invalid value encountered in double_scalars
  mcc = cov_ytyp / np.sqrt(cov_ytyt * cov_ypyp)
/home/genaro/Proyectos/Multiomics/Survival_analysis/venv/lib/python3.7/site-packages/sklearn/metrics/_classification.py:846: RuntimeWarning: invalid value encountered in double_scalars
  mcc = cov_ytyp / np.sqrt(cov_ytyt * cov_ypyp)
/home/genaro/Proyectos/Multiomics/Survival_analysis/venv/lib/python3.7/site-packages/sklearn/metrics/_classification.py:846: RuntimeWarning: invalid value encountered in double_scalars
  mcc = cov_ytyp / np.sqrt(cov_ytyt * cov_ypyp)
/home/genaro/Proyectos/Multiomics/Survival_analysis/venv/lib/python3.7/site-packages/sklearn/metrics/_classification.py:846: RuntimeWarning: invalid value encountered in double_scalars
  mcc = cov_ytyp / np.sqrt(cov_ytyt * cov_ypyp)
/home/genaro/Proyectos/Multiomics/Survival_analysis/venv/lib/python3.7/site-packages/sklearn/metrics/_classification.py:846: RuntimeWarning: invalid value encountered in double_scalars
  mcc = cov_ytyp / np.sqrt(cov_ytyt * cov_ypyp)
/home/genaro/Proyectos/Multiomics/Survival_analysis/venv/lib/python3.7/site-packages/sklearn/metrics/_classification.py:846: RuntimeWarning: invalid value encountered in double_scalars
  mcc = cov_ytyp / np.sqrt(cov_ytyt * cov_ypyp)
/home/genaro/Proyectos/Multiomics/Survival_analysis/venv/lib/python3.7/site-packages/sklearn/metrics/_classification.py:846: RuntimeWarning: invalid value encountered in double_scalars
  mcc = cov_ytyp / np.sqrt(cov_ytyt * cov_ypyp)
Binary Black Hole con 25 iteraciones y 10 estrellas terminado en 734.5714290142059 segundos
Despues de 100 corridas con el subset se obtuvo de "make_scorer(matthews_corrcoef)" -> 0.3412957670276301 ± 0.031204868286503117
Features obtenidos por el BBHA para el dataset Breast (make_scorer(matthews_corrcoef) = 0.6740311942111004) ->
['AL133616' 'NM_020974' 'NM_016529' 'Contig26291_RC' 'Contig35903_RC'
 'Contig43226']
Metrica "make_scorer(matthews_corrcoef)" | Mean -> 0.483 ± 0.182
Dataset Ovarian
	Samples (filas) -> 253 | Features (columnas) -> 15154
	Numero de clases -> 2
Top 50 Features obtenidos por Chi Square -> 
['MZ245.24466' 'MZ244.95245' 'MZ245.53704' 'MZ244.66041' 'MZ244.36855'
 'MZ245.8296' 'MZ246.12233' 'MZ246.41524' 'MZ246.70832' 'MZ247.295'
 'MZ247.00158' 'MZ247.58861' 'MZ247.88239' 'MZ244.07686' 'MZ224.65076'
 'MZ224.37109' 'MZ224.9306' 'MZ463.95962' 'MZ464.36174' 'MZ224.09159'
 'MZ463.55767' 'MZ223.81227' 'MZ221.86191' 'MZ464.76404' 'MZ220.75125'
 'MZ248.17634' 'MZ8011.6519' 'MZ8009.9813' 'MZ8013.3226' 'MZ8014.9935'
 'MZ8008.3109' 'MZ8016.6646' 'MZ225.21061' 'MZ8006.6407' 'MZ220.47402'
 'MZ8004.9707' 'MZ8018.3359' 'MZ417.73207' 'MZ243.78535' 'MZ221.58398'
 'MZ25.589892' 'MZ8003.3008' 'MZ8020.0073' 'MZ463.1559' 'MZ8001.6311'
 'MZ8021.6789' 'MZ29.001246' 'MZ465.16651' 'MZ262.18857' 'MZ418.11364']
Corrida independiente nro 1
Binary Black Hole con 25 iteraciones y 10 estrellas terminado en 713.7123782634735 segundos
Despues de 100 corridas con el subset se obtuvo de "make_scorer(specificity)" -> 0.9640000000000001 ± 0.004998765279645312
Corrida independiente nro 2
Binary Black Hole con 25 iteraciones y 10 estrellas terminado en 744.1957297325134 segundos
Despues de 100 corridas con el subset se obtuvo de "make_scorer(specificity)" -> 0.9693333333333335 ± 0.005239922721134118
Corrida independiente nro 3
Binary Black Hole con 25 iteraciones y 10 estrellas terminado en 710.3099799156189 segundos
Despues de 100 corridas con el subset se obtuvo de "make_scorer(specificity)" -> 0.9555555555555553 ± 2.220446049250313e-16
Corrida independiente nro 4
Binary Black Hole con 25 iteraciones y 10 estrellas terminado en 735.7904899120331 segundos
Despues de 100 corridas con el subset se obtuvo de "make_scorer(specificity)" -> 0.9548888888888887 ± 0.006633249580710775
Corrida independiente nro 5
Binary Black Hole con 25 iteraciones y 10 estrellas terminado en 710.5513913631439 segundos
Despues de 100 corridas con el subset se obtuvo de "make_scorer(specificity)" -> 0.9555555555555553 ± 2.220446049250313e-16
Features obtenidos por el BBHA para el dataset Ovarian (make_scorer(specificity) = 0.9693333333333335) ->
['MZ245.53704' 'MZ244.66041' 'MZ262.18857']
Metrica "make_scorer(specificity)" | Mean -> 0.96 ± 0.006
Dataset Leukemia
	Samples (filas) -> 72 | Features (columnas) -> 7129
	Numero de clases -> 2
Top 50 Features obtenidos por Chi Square -> 
['M27891_at' 'Y00787_s_at' 'U46499_at' 'D88422_at' 'M19507_at' 'X17042_at'
 'M23197_at' 'M84526_at' 'M16038_at' 'X95735_at' 'L09209_s_at' 'M63138_at'
 'X14008_rna1_f_at' 'M96326_rna1_at' 'K01396_at' 'M19045_f_at'
 'M28130_rna1_s_at' 'D88270_at' 'X16546_at' 'J03801_f_at' 'M11722_at'
 'X62320_at' 'M22960_at' 'M81695_s_at' 'M57710_at' 'M21119_s_at'
 'HG3494-HT3688_at' 'U05259_rna1_at' 'X82240_rna1_at' 'M92287_at'
 'M33195_at' 'M15395_at' 'U16306_at' 'U02020_at' 'HG2981-HT3127_s_at'
 'M98399_s_at' 'X64072_s_at' 'U46751_at' 'J03909_at' 'M63379_at'
 'M11147_at' 'J04990_at' 'X59417_at' 'X61587_at' 'D49950_at'
 'U50136_rna1_at' 'L09717_at' 'M83652_s_at' 'M31523_at' 'M33493_s_at']
Corrida independiente nro 1
Binary Black Hole con 25 iteraciones y 10 estrellas terminado en 708.6267557144165 segundos
Despues de 100 corridas con el subset se obtuvo de "make_scorer(specificity)" -> 0.9810000000000002 ± 0.01337908816025966
Corrida independiente nro 2
Binary Black Hole con 25 iteraciones y 10 estrellas terminado en 698.4909470081329 segundos
Despues de 100 corridas con el subset se obtuvo de "make_scorer(specificity)" -> 0.9856000000000003 ± 0.008979977728257416
Corrida independiente nro 3
Binary Black Hole con 25 iteraciones y 10 estrellas terminado en 692.3918445110321 segundos
Despues de 100 corridas con el subset se obtuvo de "make_scorer(specificity)" -> 0.9770499999999999 ± 0.014001696325802795
Corrida independiente nro 4
Binary Black Hole con 25 iteraciones y 10 estrellas terminado en 678.5855131149292 segundos
Despues de 100 corridas con el subset se obtuvo de "make_scorer(specificity)" -> 0.9882000000000001 ± 0.013592645070036944
Corrida independiente nro 5
Binary Black Hole con 25 iteraciones y 10 estrellas terminado en 721.0329582691193 segundos
Despues de 100 corridas con el subset se obtuvo de "make_scorer(specificity)" -> 0.9868000000000003 ± 0.009474175425861563
Features obtenidos por el BBHA para el dataset Leukemia (make_scorer(specificity) = 0.9882000000000001) ->
['M19507_at' 'M23197_at']
Metrica "make_scorer(specificity)" | Mean -> 0.984 ± 0.004
Dataset Breast
	Samples (filas) -> 97 | Features (columnas) -> 24481
	Numero de clases -> 2
Top 50 Features obtenidos por Chi Square -> 
['NM_014095' 'AL133616' 'Contig2087_RC' 'Contig23158_RC' 'Contig8224_RC'
 'NM_015832' 'Contig5690_RC' 'Contig9813_RC' 'Contig14581_RC'
 'Contig35256' 'NM_018580' 'NM_020974' 'NM_006217' 'Contig33441_RC'
 'Contig43019_RC' 'NM_007252' 'AF119904' 'NM_018432' 'NM_016529' 'L17325'
 'Contig15628_RC' 'AL080059' 'Contig26291_RC' 'NM_014625' 'Contig35903_RC'
 'NM_017658' 'NM_006794' 'Contig21865_RC' 'Contig47635_RC'
 'Contig55725_RC' 'Contig36093_RC' 'Contig45932_RC' 'Contig43226'
 'Contig17394_RC' 'NM_014926' 'NM_016298' 'Contig39638_RC' 'AL133575'
 'Contig42942_RC' 'AK000053' 'NM_006174' 'AL117508' 'AB032960'
 'Contig14701_RC' 'Contig39984' 'NM_006658' 'Contig38855_RC'
 'Contig15219_RC' 'NM_018308' 'Contig27326_RC']
Corrida independiente nro 1
Binary Black Hole con 25 iteraciones y 10 estrellas terminado en 723.5450296401978 segundos
Despues de 100 corridas con el subset se obtuvo de "make_scorer(specificity)" -> 0.7598999999999998 ± 0.016446580191638603
Corrida independiente nro 2
Binary Black Hole con 25 iteraciones y 10 estrellas terminado en 730.8373093605042 segundos
Despues de 100 corridas con el subset se obtuvo de "make_scorer(specificity)" -> 0.73095 ± 0.024481574704254612
Corrida independiente nro 3
Binary Black Hole con 25 iteraciones y 10 estrellas terminado en 721.2960984706879 segundos
Despues de 100 corridas con el subset se obtuvo de "make_scorer(specificity)" -> 0.7680499999999999 ± 0.011638191440253897
Corrida independiente nro 4
Binary Black Hole con 25 iteraciones y 10 estrellas terminado en 724.8464086055756 segundos
Despues de 100 corridas con el subset se obtuvo de "make_scorer(specificity)" -> 0.7731999999999999 ± 0.019666214684071783
Corrida independiente nro 5
Binary Black Hole con 25 iteraciones y 10 estrellas terminado en 717.2984230518341 segundos
Despues de 100 corridas con el subset se obtuvo de "make_scorer(specificity)" -> 0.7448999999999999 ± 0.02606702898298919
Features obtenidos por el BBHA para el dataset Breast (make_scorer(specificity) = 0.7731999999999999) ->
['NM_015832' 'NM_020974' 'Contig35903_RC' 'AL133575' 'AL117508'
 'NM_018308']
Metrica "make_scorer(specificity)" | Mean -> 0.755 ± 0.016
Dataset Ovarian
	Samples (filas) -> 253 | Features (columnas) -> 15154
	Numero de clases -> 2
Top 50 Features obtenidos por Chi Square -> 
['MZ245.24466' 'MZ244.95245' 'MZ245.53704' 'MZ244.66041' 'MZ244.36855'
 'MZ245.8296' 'MZ246.12233' 'MZ246.41524' 'MZ246.70832' 'MZ247.295'
 'MZ247.00158' 'MZ247.58861' 'MZ247.88239' 'MZ244.07686' 'MZ224.65076'
 'MZ224.37109' 'MZ224.9306' 'MZ463.95962' 'MZ464.36174' 'MZ224.09159'
 'MZ463.55767' 'MZ223.81227' 'MZ221.86191' 'MZ464.76404' 'MZ220.75125'
 'MZ248.17634' 'MZ8011.6519' 'MZ8009.9813' 'MZ8013.3226' 'MZ8014.9935'
 'MZ8008.3109' 'MZ8016.6646' 'MZ225.21061' 'MZ8006.6407' 'MZ220.47402'
 'MZ8004.9707' 'MZ8018.3359' 'MZ417.73207' 'MZ243.78535' 'MZ221.58398'
 'MZ25.589892' 'MZ8003.3008' 'MZ8020.0073' 'MZ463.1559' 'MZ8001.6311'
 'MZ8021.6789' 'MZ29.001246' 'MZ465.16651' 'MZ262.18857' 'MZ418.11364']
Corrida independiente nro 1
Binary Black Hole con 25 iteraciones y 10 estrellas terminado en 756.1000881195068 segundos
Despues de 100 corridas con el subset se obtuvo de "accuracy" -> 0.9815923076923077 ± 0.004002861402582423
Corrida independiente nro 2
Binary Black Hole con 25 iteraciones y 10 estrellas terminado en 729.56960105896 segundos
Despues de 100 corridas con el subset se obtuvo de "accuracy" -> 0.9780830769230766 ± 0.0021388953627471423
Corrida independiente nro 3
Binary Black Hole con 25 iteraciones y 10 estrellas terminado en 796.1992003917694 segundos
Despues de 100 corridas con el subset se obtuvo de "accuracy" -> 0.9837538461538463 ± 0.0021540659228538182
Corrida independiente nro 4
Binary Black Hole con 25 iteraciones y 10 estrellas terminado en 874.548837184906 segundos
Despues de 100 corridas con el subset se obtuvo de "accuracy" -> 0.9837538461538463 ± 0.0012000000000000346
Corrida independiente nro 5
Binary Black Hole con 25 iteraciones y 10 estrellas terminado en 1163.4904639720917 segundos
Despues de 100 corridas con el subset se obtuvo de "accuracy" -> 0.9768338461538462 ± 0.0017937669859823266
Features obtenidos por el BBHA para el dataset Ovarian (accuracy = 0.9837538461538463) ->
['MZ244.95245' 'MZ244.66041' 'MZ246.70832' 'MZ225.21061' 'MZ262.18857']
Metrica "accuracy" | Mean -> 0.981 ± 0.003
Dataset Leukemia
	Samples (filas) -> 72 | Features (columnas) -> 7129
	Numero de clases -> 2
Top 50 Features obtenidos por Chi Square -> 
['M27891_at' 'Y00787_s_at' 'U46499_at' 'D88422_at' 'M19507_at' 'X17042_at'
 'M23197_at' 'M84526_at' 'M16038_at' 'X95735_at' 'L09209_s_at' 'M63138_at'
 'X14008_rna1_f_at' 'M96326_rna1_at' 'K01396_at' 'M19045_f_at'
 'M28130_rna1_s_at' 'D88270_at' 'X16546_at' 'J03801_f_at' 'M11722_at'
 'X62320_at' 'M22960_at' 'M81695_s_at' 'M57710_at' 'M21119_s_at'
 'HG3494-HT3688_at' 'U05259_rna1_at' 'X82240_rna1_at' 'M92287_at'
 'M33195_at' 'M15395_at' 'U16306_at' 'U02020_at' 'HG2981-HT3127_s_at'
 'M98399_s_at' 'X64072_s_at' 'U46751_at' 'J03909_at' 'M63379_at'
 'M11147_at' 'J04990_at' 'X59417_at' 'X61587_at' 'D49950_at'
 'U50136_rna1_at' 'L09717_at' 'M83652_s_at' 'M31523_at' 'M33493_s_at']
Corrida independiente nro 1
Binary Black Hole con 25 iteraciones y 10 estrellas terminado en 734.2961754798889 segundos
Despues de 100 corridas con el subset se obtuvo de "accuracy" -> 0.996 ± 0.007021831844253981
Corrida independiente nro 2
Binary Black Hole con 25 iteraciones y 10 estrellas terminado en 1317.7528111934662 segundos
Despues de 100 corridas con el subset se obtuvo de "accuracy" -> 0.9755714285714285 ± 0.006482315031164794
Corrida independiente nro 3
Binary Black Hole con 25 iteraciones y 10 estrellas terminado en 741.5257987976074 segundos
Despues de 100 corridas con el subset se obtuvo de "accuracy" -> 0.9946249999999999 ± 0.007761162961193615
Corrida independiente nro 4
Binary Black Hole con 25 iteraciones y 10 estrellas terminado en 841.1767740249634 segundos
Despues de 100 corridas con el subset se obtuvo de "accuracy" -> 0.9736428571428576 ± 0.002436960301318846
Corrida independiente nro 5
Binary Black Hole con 25 iteraciones y 10 estrellas terminado en 859.4064571857452 segundos
Despues de 100 corridas con el subset se obtuvo de "accuracy" -> 0.996 ± 0.0064142698058981635
Features obtenidos por el BBHA para el dataset Leukemia (accuracy = 0.996) ->
['Y00787_s_at' 'M23197_at' 'M96326_rna1_at' 'M11722_at' 'M92287_at'
 'M11147_at']
Metrica "accuracy" | Mean -> 0.987 ± 0.01
Dataset Breast
	Samples (filas) -> 97 | Features (columnas) -> 24481
	Numero de clases -> 2
Top 50 Features obtenidos por Chi Square -> 
['NM_014095' 'AL133616' 'Contig2087_RC' 'Contig23158_RC' 'Contig8224_RC'
 'NM_015832' 'Contig5690_RC' 'Contig9813_RC' 'Contig14581_RC'
 'Contig35256' 'NM_018580' 'NM_020974' 'NM_006217' 'Contig33441_RC'
 'Contig43019_RC' 'NM_007252' 'AF119904' 'NM_018432' 'NM_016529' 'L17325'
 'Contig15628_RC' 'AL080059' 'Contig26291_RC' 'NM_014625' 'Contig35903_RC'
 'NM_017658' 'NM_006794' 'Contig21865_RC' 'Contig47635_RC'
 'Contig55725_RC' 'Contig36093_RC' 'Contig45932_RC' 'Contig43226'
 'Contig17394_RC' 'NM_014926' 'NM_016298' 'Contig39638_RC' 'AL133575'
 'Contig42942_RC' 'AK000053' 'NM_006174' 'AL117508' 'AB032960'
 'Contig14701_RC' 'Contig39984' 'NM_006658' 'Contig38855_RC'
 'Contig15219_RC' 'NM_018308' 'Contig27326_RC']
Corrida independiente nro 1
Binary Black Hole con 25 iteraciones y 10 estrellas terminado en 808.6057529449463 segundos
Despues de 100 corridas con el subset se obtuvo de "accuracy" -> 0.7848333333333332 ± 0.015437948274093314
Corrida independiente nro 2
Binary Black Hole con 25 iteraciones y 10 estrellas terminado en 740.5539121627808 segundos
Despues de 100 corridas con el subset se obtuvo de "accuracy" -> 0.6714777777777777 ± 0.017038123556336465
Corrida independiente nro 3
Binary Black Hole con 25 iteraciones y 10 estrellas terminado en 735.2973778247833 segundos
Despues de 100 corridas con el subset se obtuvo de "accuracy" -> 0.7753111111111113 ± 0.01157538896234721
Corrida independiente nro 4
Binary Black Hole con 25 iteraciones y 10 estrellas terminado en 735.3344666957855 segundos
Despues de 100 corridas con el subset se obtuvo de "accuracy" -> 0.7924333333333332 ± 0.009611843260488463
Corrida independiente nro 5
Binary Black Hole con 25 iteraciones y 10 estrellas terminado en 741.6978764533997 segundos
Despues de 100 corridas con el subset se obtuvo de "accuracy" -> 0.7836777777777779 ± 0.013609813997150631
Features obtenidos por el BBHA para el dataset Breast (accuracy = 0.7924333333333332) ->
['NM_014095' 'Contig23158_RC' 'Contig5690_RC' 'AF119904' 'AL080059'
 'Contig36093_RC' 'NM_016298' 'AL133575' 'Contig38855_RC']
Metrica "accuracy" | Mean -> 0.762 ± 0.045
Dataset Ovarian
	Samples (filas) -> 253 | Features (columnas) -> 15154
	Numero de clases -> 2
Top 50 Features obtenidos por Chi Square -> 
['MZ245.24466' 'MZ244.95245' 'MZ245.53704' 'MZ244.66041' 'MZ244.36855'
 'MZ245.8296' 'MZ246.12233' 'MZ246.41524' 'MZ246.70832' 'MZ247.295'
 'MZ247.00158' 'MZ247.58861' 'MZ247.88239' 'MZ244.07686' 'MZ224.65076'
 'MZ224.37109' 'MZ224.9306' 'MZ463.95962' 'MZ464.36174' 'MZ224.09159'
 'MZ463.55767' 'MZ223.81227' 'MZ221.86191' 'MZ464.76404' 'MZ220.75125'
 'MZ248.17634' 'MZ8011.6519' 'MZ8009.9813' 'MZ8013.3226' 'MZ8014.9935'
 'MZ8008.3109' 'MZ8016.6646' 'MZ225.21061' 'MZ8006.6407' 'MZ220.47402'
 'MZ8004.9707' 'MZ8018.3359' 'MZ417.73207' 'MZ243.78535' 'MZ221.58398'
 'MZ25.589892' 'MZ8003.3008' 'MZ8020.0073' 'MZ463.1559' 'MZ8001.6311'
 'MZ8021.6789' 'MZ29.001246' 'MZ465.16651' 'MZ262.18857' 'MZ418.11364']
Corrida independiente nro 1
Binary Black Hole con 25 iteraciones y 10 estrellas terminado en 733.8321766853333 segundos
Despues de 100 corridas con el subset se obtuvo de "roc_auc" -> 0.9993472222222219 ± 0.00016492141787552607
Corrida independiente nro 2
Binary Black Hole con 25 iteraciones y 10 estrellas terminado en 736.8479495048523 segundos
Despues de 100 corridas con el subset se obtuvo de "roc_auc" -> 0.9992916666666665 ± 9.722222222222188e-05
Corrida independiente nro 3
Binary Black Hole con 25 iteraciones y 10 estrellas terminado en 751.3583931922913 segundos
Despues de 100 corridas con el subset se obtuvo de "roc_auc" -> 0.9999934640522875 ± 6.503185863441935e-05
Corrida independiente nro 4
Binary Black Hole con 25 iteraciones y 10 estrellas terminado en 804.0187287330627 segundos
Despues de 100 corridas con el subset se obtuvo de "roc_auc" -> 0.9994234068627453 ± 0.00037314175297196376
Corrida independiente nro 5
Binary Black Hole con 25 iteraciones y 10 estrellas terminado en 839.313693523407 segundos
Despues de 100 corridas con el subset se obtuvo de "roc_auc" -> 0.9997988153594771 ± 0.00034397965718562624
Features obtenidos por el BBHA para el dataset Ovarian (roc_auc = 0.9999934640522875) ->
['MZ245.8296' 'MZ247.88239' 'MZ262.18857']
Metrica "roc_auc" | Mean -> 1.0 ± 0.0
Dataset Leukemia
	Samples (filas) -> 72 | Features (columnas) -> 7129
	Numero de clases -> 2
Top 50 Features obtenidos por Chi Square -> 
['M27891_at' 'Y00787_s_at' 'U46499_at' 'D88422_at' 'M19507_at' 'X17042_at'
 'M23197_at' 'M84526_at' 'M16038_at' 'X95735_at' 'L09209_s_at' 'M63138_at'
 'X14008_rna1_f_at' 'M96326_rna1_at' 'K01396_at' 'M19045_f_at'
 'M28130_rna1_s_at' 'D88270_at' 'X16546_at' 'J03801_f_at' 'M11722_at'
 'X62320_at' 'M22960_at' 'M81695_s_at' 'M57710_at' 'M21119_s_at'
 'HG3494-HT3688_at' 'U05259_rna1_at' 'X82240_rna1_at' 'M92287_at'
 'M33195_at' 'M15395_at' 'U16306_at' 'U02020_at' 'HG2981-HT3127_s_at'
 'M98399_s_at' 'X64072_s_at' 'U46751_at' 'J03909_at' 'M63379_at'
 'M11147_at' 'J04990_at' 'X59417_at' 'X61587_at' 'D49950_at'
 'U50136_rna1_at' 'L09717_at' 'M83652_s_at' 'M31523_at' 'M33493_s_at']
Corrida independiente nro 1
Binary Black Hole con 25 iteraciones y 10 estrellas terminado en 793.0710942745209 segundos
Despues de 100 corridas con el subset se obtuvo de "roc_auc" -> 1.0 ± 0.0
Corrida independiente nro 2
Binary Black Hole con 25 iteraciones y 10 estrellas terminado en 761.1507546901703 segundos
Despues de 100 corridas con el subset se obtuvo de "roc_auc" -> 1.0 ± 0.0
Corrida independiente nro 3
Binary Black Hole con 25 iteraciones y 10 estrellas terminado en 706.1193623542786 segundos
Despues de 100 corridas con el subset se obtuvo de "roc_auc" -> 0.9978 ± 0.004319722213291038
Corrida independiente nro 4
Binary Black Hole con 25 iteraciones y 10 estrellas terminado en 727.975926399231 segundos
Despues de 100 corridas con el subset se obtuvo de "roc_auc" -> 1.0 ± 0.0
Corrida independiente nro 5
Binary Black Hole con 25 iteraciones y 10 estrellas terminado en 817.5244081020355 segundos
Despues de 100 corridas con el subset se obtuvo de "roc_auc" -> 1.0 ± 0.0
Features obtenidos por el BBHA para el dataset Leukemia (roc_auc = 1.0) ->
['M27891_at' 'M83652_s_at']
Metrica "roc_auc" | Mean -> 1.0 ± 0.001
Dataset Breast
	Samples (filas) -> 97 | Features (columnas) -> 24481
	Numero de clases -> 2
Top 50 Features obtenidos por Chi Square -> 
['NM_014095' 'AL133616' 'Contig2087_RC' 'Contig23158_RC' 'Contig8224_RC'
 'NM_015832' 'Contig5690_RC' 'Contig9813_RC' 'Contig14581_RC'
 'Contig35256' 'NM_018580' 'NM_020974' 'NM_006217' 'Contig33441_RC'
 'Contig43019_RC' 'NM_007252' 'AF119904' 'NM_018432' 'NM_016529' 'L17325'
 'Contig15628_RC' 'AL080059' 'Contig26291_RC' 'NM_014625' 'Contig35903_RC'
 'NM_017658' 'NM_006794' 'Contig21865_RC' 'Contig47635_RC'
 'Contig55725_RC' 'Contig36093_RC' 'Contig45932_RC' 'Contig43226'
 'Contig17394_RC' 'NM_014926' 'NM_016298' 'Contig39638_RC' 'AL133575'
 'Contig42942_RC' 'AK000053' 'NM_006174' 'AL117508' 'AB032960'
 'Contig14701_RC' 'Contig39984' 'NM_006658' 'Contig38855_RC'
 'Contig15219_RC' 'NM_018308' 'Contig27326_RC']
Corrida independiente nro 1
Binary Black Hole con 25 iteraciones y 10 estrellas terminado en 793.0401108264923 segundos
Despues de 100 corridas con el subset se obtuvo de "roc_auc" -> 0.8687400000000001 ± 0.010428302035007098
Corrida independiente nro 2
Binary Black Hole con 25 iteraciones y 10 estrellas terminado en 914.0338521003723 segundos
Despues de 100 corridas con el subset se obtuvo de "roc_auc" -> 0.7516783333333333 ± 0.013730015881677307
Corrida independiente nro 3
Binary Black Hole con 25 iteraciones y 10 estrellas terminado en 906.4438288211823 segundos
Despues de 100 corridas con el subset se obtuvo de "roc_auc" -> 0.8668200000000001 ± 0.008525189147461787
Corrida independiente nro 4
Binary Black Hole con 25 iteraciones y 10 estrellas terminado en 859.6841475963593 segundos
Despues de 100 corridas con el subset se obtuvo de "roc_auc" -> 0.8466933333333335 ± 0.008321982936776542
Corrida independiente nro 5
Binary Black Hole con 25 iteraciones y 10 estrellas terminado en 868.7049312591553 segundos
Despues de 100 corridas con el subset se obtuvo de "roc_auc" -> 0.8441433333333334 ± 0.010366881562617248
Features obtenidos por el BBHA para el dataset Breast (roc_auc = 0.8687400000000001) ->
['Contig9813_RC' 'NM_018580' 'AL080059' 'Contig17394_RC' 'AL133575'
 'Contig15219_RC' 'NM_018308']
Metrica "roc_auc" | Mean -> 0.836 ± 0.043
Dataset Ovarian
	Samples (filas) -> 253 | Features (columnas) -> 15154
	Numero de clases -> 2
Top 50 Features obtenidos por Chi Square -> 
['MZ245.24466' 'MZ244.95245' 'MZ245.53704' 'MZ244.66041' 'MZ244.36855'
 'MZ245.8296' 'MZ246.12233' 'MZ246.41524' 'MZ246.70832' 'MZ247.295'
 'MZ247.00158' 'MZ247.58861' 'MZ247.88239' 'MZ244.07686' 'MZ224.65076'
 'MZ224.37109' 'MZ224.9306' 'MZ463.95962' 'MZ464.36174' 'MZ224.09159'
 'MZ463.55767' 'MZ223.81227' 'MZ221.86191' 'MZ464.76404' 'MZ220.75125'
 'MZ248.17634' 'MZ8011.6519' 'MZ8009.9813' 'MZ8013.3226' 'MZ8014.9935'
 'MZ8008.3109' 'MZ8016.6646' 'MZ225.21061' 'MZ8006.6407' 'MZ220.47402'
 'MZ8004.9707' 'MZ8018.3359' 'MZ417.73207' 'MZ243.78535' 'MZ221.58398'
 'MZ25.589892' 'MZ8003.3008' 'MZ8020.0073' 'MZ463.1559' 'MZ8001.6311'
 'MZ8021.6789' 'MZ29.001246' 'MZ465.16651' 'MZ262.18857' 'MZ418.11364']
Corrida independiente nro 1
Binary Black Hole con 25 iteraciones y 10 estrellas terminado en 838.8115453720093 segundos
Despues de 100 corridas con el subset se obtuvo de "recall" -> 0.9896875000000002 ± 0.003989732917126165
Corrida independiente nro 2
Binary Black Hole con 25 iteraciones y 10 estrellas terminado en 952.9495992660522 segundos
Despues de 100 corridas con el subset se obtuvo de "recall" -> 0.9971250000000004 ± 0.0031149839485942674
Corrida independiente nro 3
Binary Black Hole con 25 iteraciones y 10 estrellas terminado en 942.7974343299866 segundos
Despues de 100 corridas con el subset se obtuvo de "recall" -> 0.9937500000000005 ± 4.440892098500626e-16
Corrida independiente nro 4
Binary Black Hole con 25 iteraciones y 10 estrellas terminado en 947.0799589157104 segundos
Despues de 100 corridas con el subset se obtuvo de "recall" -> 0.9937500000000005 ± 4.440892098500626e-16
Corrida independiente nro 5
Binary Black Hole con 25 iteraciones y 10 estrellas terminado en 793.6791679859161 segundos
Despues de 100 corridas con el subset se obtuvo de "recall" -> 0.9981250000000002 ± 0.002997394702070439
Features obtenidos por el BBHA para el dataset Ovarian (recall = 0.9981250000000002) ->
['MZ246.12233' 'MZ247.88239' 'MZ244.07686' 'MZ224.09159' 'MZ8013.3226'
 'MZ8006.6407' 'MZ8018.3359' 'MZ8021.6789' 'MZ262.18857']
Metrica "recall" | Mean -> 0.994 ± 0.003
Dataset Leukemia
	Samples (filas) -> 72 | Features (columnas) -> 7129
	Numero de clases -> 2
Top 50 Features obtenidos por Chi Square -> 
['M27891_at' 'Y00787_s_at' 'U46499_at' 'D88422_at' 'M19507_at' 'X17042_at'
 'M23197_at' 'M84526_at' 'M16038_at' 'X95735_at' 'L09209_s_at' 'M63138_at'
 'X14008_rna1_f_at' 'M96326_rna1_at' 'K01396_at' 'M19045_f_at'
 'M28130_rna1_s_at' 'D88270_at' 'X16546_at' 'J03801_f_at' 'M11722_at'
 'X62320_at' 'M22960_at' 'M81695_s_at' 'M57710_at' 'M21119_s_at'
 'HG3494-HT3688_at' 'U05259_rna1_at' 'X82240_rna1_at' 'M92287_at'
 'M33195_at' 'M15395_at' 'U16306_at' 'U02020_at' 'HG2981-HT3127_s_at'
 'M98399_s_at' 'X64072_s_at' 'U46751_at' 'J03909_at' 'M63379_at'
 'M11147_at' 'J04990_at' 'X59417_at' 'X61587_at' 'D49950_at'
 'U50136_rna1_at' 'L09717_at' 'M83652_s_at' 'M31523_at' 'M33493_s_at']
Corrida independiente nro 1
Binary Black Hole con 25 iteraciones y 10 estrellas terminado en 704.6390688419342 segundos
Despues de 100 corridas con el subset se obtuvo de "recall" -> 0.9000000000000005 ± 4.440892098500626e-16
Corrida independiente nro 2
Binary Black Hole con 25 iteraciones y 10 estrellas terminado en 724.9557385444641 segundos
Despues de 100 corridas con el subset se obtuvo de "recall" -> 0.987 ± 0.021931712199461332
Corrida independiente nro 3
Binary Black Hole con 25 iteraciones y 10 estrellas terminado en 725.3723244667053 segundos
Despues de 100 corridas con el subset se obtuvo de "recall" -> 0.9480000000000001 ± 0.0097979589711327
Corrida independiente nro 4
Binary Black Hole con 25 iteraciones y 10 estrellas terminado en 719.7125222682953 segundos
Despues de 100 corridas con el subset se obtuvo de "recall" -> 0.9676666666666668 ± 0.005686240703077344
Corrida independiente nro 5
Binary Black Hole con 25 iteraciones y 10 estrellas terminado en 727.0333454608917 segundos
Despues de 100 corridas con el subset se obtuvo de "recall" -> 0.95 ± 0.0
Features obtenidos por el BBHA para el dataset Leukemia (recall = 0.987) ->
['Y00787_s_at' 'L09209_s_at' 'M28130_rna1_s_at' 'J03801_f_at' 'M11722_at'
 'M92287_at']
Metrica "recall" | Mean -> 0.951 ± 0.029
Dataset Breast
	Samples (filas) -> 97 | Features (columnas) -> 24481
	Numero de clases -> 2
Top 50 Features obtenidos por Chi Square -> 
['NM_014095' 'AL133616' 'Contig2087_RC' 'Contig23158_RC' 'Contig8224_RC'
 'NM_015832' 'Contig5690_RC' 'Contig9813_RC' 'Contig14581_RC'
 'Contig35256' 'NM_018580' 'NM_020974' 'NM_006217' 'Contig33441_RC'
 'Contig43019_RC' 'NM_007252' 'AF119904' 'NM_018432' 'NM_016529' 'L17325'
 'Contig15628_RC' 'AL080059' 'Contig26291_RC' 'NM_014625' 'Contig35903_RC'
 'NM_017658' 'NM_006794' 'Contig21865_RC' 'Contig47635_RC'
 'Contig55725_RC' 'Contig36093_RC' 'Contig45932_RC' 'Contig43226'
 'Contig17394_RC' 'NM_014926' 'NM_016298' 'Contig39638_RC' 'AL133575'
 'Contig42942_RC' 'AK000053' 'NM_006174' 'AL117508' 'AB032960'
 'Contig14701_RC' 'Contig39984' 'NM_006658' 'Contig38855_RC'
 'Contig15219_RC' 'NM_018308' 'Contig27326_RC']
Corrida independiente nro 1
Binary Black Hole con 25 iteraciones y 10 estrellas terminado en 743.8986940383911 segundos
Despues de 100 corridas con el subset se obtuvo de "recall" -> 0.8564 ± 0.016823792675850487
Corrida independiente nro 2
Binary Black Hole con 25 iteraciones y 10 estrellas terminado en 745.3296113014221 segundos
Despues de 100 corridas con el subset se obtuvo de "recall" -> 0.8102666666666667 ± 0.017209041551205367
Corrida independiente nro 3
Binary Black Hole con 25 iteraciones y 10 estrellas terminado en 751.9312727451324 segundos
Despues de 100 corridas con el subset se obtuvo de "recall" -> 0.840966666666667 ± 0.01810644452490146
Corrida independiente nro 4
Binary Black Hole con 25 iteraciones y 10 estrellas terminado en 733.700679063797 segundos
Despues de 100 corridas con el subset se obtuvo de "recall" -> 0.8466000000000001 ± 0.020010996976662615
Corrida independiente nro 5
Binary Black Hole con 25 iteraciones y 10 estrellas terminado en 752.3522474765778 segundos
Despues de 100 corridas con el subset se obtuvo de "recall" -> 0.8130333333333336 ± 0.013549046706933542
Features obtenidos por el BBHA para el dataset Breast (recall = 0.8564) ->
['AL133616' 'Contig35256' 'Contig33441_RC' 'Contig43019_RC' 'NM_018432'
 'AL080059' 'NM_006794' 'Contig47635_RC' 'Contig36093_RC' 'NM_016298'
 'Contig39984' 'Contig38855_RC' 'NM_018308']
Metrica "recall" | Mean -> 0.833 ± 0.018
Dataset Ovarian
	Samples (filas) -> 253 | Features (columnas) -> 15154
	Numero de clases -> 2
Top 50 Features obtenidos por Chi Square -> 
['MZ245.24466' 'MZ244.95245' 'MZ245.53704' 'MZ244.66041' 'MZ244.36855'
 'MZ245.8296' 'MZ246.12233' 'MZ246.41524' 'MZ246.70832' 'MZ247.295'
 'MZ247.00158' 'MZ247.58861' 'MZ247.88239' 'MZ244.07686' 'MZ224.65076'
 'MZ224.37109' 'MZ224.9306' 'MZ463.95962' 'MZ464.36174' 'MZ224.09159'
 'MZ463.55767' 'MZ223.81227' 'MZ221.86191' 'MZ464.76404' 'MZ220.75125'
 'MZ248.17634' 'MZ8011.6519' 'MZ8009.9813' 'MZ8013.3226' 'MZ8014.9935'
 'MZ8008.3109' 'MZ8016.6646' 'MZ225.21061' 'MZ8006.6407' 'MZ220.47402'
 'MZ8004.9707' 'MZ8018.3359' 'MZ417.73207' 'MZ243.78535' 'MZ221.58398'
 'MZ25.589892' 'MZ8003.3008' 'MZ8020.0073' 'MZ463.1559' 'MZ8001.6311'
 'MZ8021.6789' 'MZ29.001246' 'MZ465.16651' 'MZ262.18857' 'MZ418.11364']
Corrida independiente nro 1
Binary Black Hole con 25 iteraciones y 10 estrellas terminado en 794.0706145763397 segundos
Despues de 100 corridas con el subset se obtuvo de "make_scorer(matthews_corrcoef)" -> 0.9601874593312513 ± 0.00551117351588565
Corrida independiente nro 2
Binary Black Hole con 25 iteraciones y 10 estrellas terminado en 802.6164429187775 segundos
Despues de 100 corridas con el subset se obtuvo de "make_scorer(matthews_corrcoef)" -> 0.9531553384892397 ± 0.004846235000628944
Corrida independiente nro 3
Binary Black Hole con 25 iteraciones y 10 estrellas terminado en 787.4071321487427 segundos
Despues de 100 corridas con el subset se obtuvo de "make_scorer(matthews_corrcoef)" -> 0.96009903357099 ± 0.004386837850337251
Corrida independiente nro 4
Binary Black Hole con 25 iteraciones y 10 estrellas terminado en 788.6695144176483 segundos
Despues de 100 corridas con el subset se obtuvo de "make_scorer(matthews_corrcoef)" -> 0.9654850463836953 ± 0.0013892852973998613
Corrida independiente nro 5
Binary Black Hole con 25 iteraciones y 10 estrellas terminado en 794.332799911499 segundos
Despues de 100 corridas con el subset se obtuvo de "make_scorer(matthews_corrcoef)" -> 0.9565437517274179 ± 0.0022094483437468714
Features obtenidos por el BBHA para el dataset Ovarian (make_scorer(matthews_corrcoef) = 0.9654850463836953) ->
['MZ245.53704' 'MZ244.66041' 'MZ244.36855' 'MZ247.88239' 'MZ221.86191'
 'MZ221.58398' 'MZ8003.3008' 'MZ262.18857']
Metrica "make_scorer(matthews_corrcoef)" | Mean -> 0.959 ± 0.004
Dataset Leukemia
	Samples (filas) -> 72 | Features (columnas) -> 7129
	Numero de clases -> 2
Top 50 Features obtenidos por Chi Square -> 
['M27891_at' 'Y00787_s_at' 'U46499_at' 'D88422_at' 'M19507_at' 'X17042_at'
 'M23197_at' 'M84526_at' 'M16038_at' 'X95735_at' 'L09209_s_at' 'M63138_at'
 'X14008_rna1_f_at' 'M96326_rna1_at' 'K01396_at' 'M19045_f_at'
 'M28130_rna1_s_at' 'D88270_at' 'X16546_at' 'J03801_f_at' 'M11722_at'
 'X62320_at' 'M22960_at' 'M81695_s_at' 'M57710_at' 'M21119_s_at'
 'HG3494-HT3688_at' 'U05259_rna1_at' 'X82240_rna1_at' 'M92287_at'
 'M33195_at' 'M15395_at' 'U16306_at' 'U02020_at' 'HG2981-HT3127_s_at'
 'M98399_s_at' 'X64072_s_at' 'U46751_at' 'J03909_at' 'M63379_at'
 'M11147_at' 'J04990_at' 'X59417_at' 'X61587_at' 'D49950_at'
 'U50136_rna1_at' 'L09717_at' 'M83652_s_at' 'M31523_at' 'M33493_s_at']
Corrida independiente nro 1
Binary Black Hole con 25 iteraciones y 10 estrellas terminado en 716.452630519867 segundos
Despues de 100 corridas con el subset se obtuvo de "make_scorer(matthews_corrcoef)" -> 0.95804623487747 ± 0.015708385626694767
Corrida independiente nro 2
Binary Black Hole con 25 iteraciones y 10 estrellas terminado en 713.1417319774628 segundos
Despues de 100 corridas con el subset se obtuvo de "make_scorer(matthews_corrcoef)" -> 0.9526827791437599 ± 0.016765046002524677
Corrida independiente nro 3
Binary Black Hole con 25 iteraciones y 10 estrellas terminado en 713.187830209732 segundos
Despues de 100 corridas con el subset se obtuvo de "make_scorer(matthews_corrcoef)" -> 0.9623920963835115 ± 0.007316865936760596
Corrida independiente nro 4
Binary Black Hole con 25 iteraciones y 10 estrellas terminado en 714.3054926395416 segundos
Despues de 100 corridas con el subset se obtuvo de "make_scorer(matthews_corrcoef)" -> 0.9569980312503163 ± 0.012109646190216603
Corrida independiente nro 5
Binary Black Hole con 25 iteraciones y 10 estrellas terminado en 715.9497599601746 segundos
Despues de 100 corridas con el subset se obtuvo de "make_scorer(matthews_corrcoef)" -> 0.9989211869733609 ± 0.0052850828862667605
Features obtenidos por el BBHA para el dataset Leukemia (make_scorer(matthews_corrcoef) = 0.9989211869733609) ->
['Y00787_s_at' 'X17042_at' 'M16038_at' 'M28130_rna1_s_at' 'U05259_rna1_at'
 'M92287_at' 'M15395_at' 'U16306_at' 'HG2981-HT3127_s_at' 'M98399_s_at'
 'M63379_at' 'D49950_at' 'M33493_s_at']
Metrica "make_scorer(matthews_corrcoef)" | Mean -> 0.966 ± 0.017
Dataset Breast
	Samples (filas) -> 97 | Features (columnas) -> 24481
	Numero de clases -> 2
Top 50 Features obtenidos por Chi Square -> 
['NM_014095' 'AL133616' 'Contig2087_RC' 'Contig23158_RC' 'Contig8224_RC'
 'NM_015832' 'Contig5690_RC' 'Contig9813_RC' 'Contig14581_RC'
 'Contig35256' 'NM_018580' 'NM_020974' 'NM_006217' 'Contig33441_RC'
 'Contig43019_RC' 'NM_007252' 'AF119904' 'NM_018432' 'NM_016529' 'L17325'
 'Contig15628_RC' 'AL080059' 'Contig26291_RC' 'NM_014625' 'Contig35903_RC'
 'NM_017658' 'NM_006794' 'Contig21865_RC' 'Contig47635_RC'
 'Contig55725_RC' 'Contig36093_RC' 'Contig45932_RC' 'Contig43226'
 'Contig17394_RC' 'NM_014926' 'NM_016298' 'Contig39638_RC' 'AL133575'
 'Contig42942_RC' 'AK000053' 'NM_006174' 'AL117508' 'AB032960'
 'Contig14701_RC' 'Contig39984' 'NM_006658' 'Contig38855_RC'
 'Contig15219_RC' 'NM_018308' 'Contig27326_RC']
Corrida independiente nro 1
/home/genaro/Proyectos/Multiomics/Survival_analysis/venv/lib/python3.7/site-packages/sklearn/metrics/_classification.py:846: RuntimeWarning: invalid value encountered in double_scalars
  mcc = cov_ytyp / np.sqrt(cov_ytyt * cov_ypyp)
/home/genaro/Proyectos/Multiomics/Survival_analysis/venv/lib/python3.7/site-packages/sklearn/metrics/_classification.py:846: RuntimeWarning: invalid value encountered in double_scalars
  mcc = cov_ytyp / np.sqrt(cov_ytyt * cov_ypyp)
/home/genaro/Proyectos/Multiomics/Survival_analysis/venv/lib/python3.7/site-packages/sklearn/metrics/_classification.py:846: RuntimeWarning: invalid value encountered in double_scalars
  mcc = cov_ytyp / np.sqrt(cov_ytyt * cov_ypyp)
/home/genaro/Proyectos/Multiomics/Survival_analysis/venv/lib/python3.7/site-packages/sklearn/metrics/_classification.py:846: RuntimeWarning: invalid value encountered in double_scalars
  mcc = cov_ytyp / np.sqrt(cov_ytyt * cov_ypyp)
/home/genaro/Proyectos/Multiomics/Survival_analysis/venv/lib/python3.7/site-packages/sklearn/metrics/_classification.py:846: RuntimeWarning: invalid value encountered in double_scalars
  mcc = cov_ytyp / np.sqrt(cov_ytyt * cov_ypyp)
/home/genaro/Proyectos/Multiomics/Survival_analysis/venv/lib/python3.7/site-packages/sklearn/metrics/_classification.py:846: RuntimeWarning: invalid value encountered in double_scalars
  mcc = cov_ytyp / np.sqrt(cov_ytyt * cov_ypyp)
/home/genaro/Proyectos/Multiomics/Survival_analysis/venv/lib/python3.7/site-packages/sklearn/metrics/_classification.py:846: RuntimeWarning: invalid value encountered in double_scalars
  mcc = cov_ytyp / np.sqrt(cov_ytyt * cov_ypyp)
/home/genaro/Proyectos/Multiomics/Survival_analysis/venv/lib/python3.7/site-packages/sklearn/metrics/_classification.py:846: RuntimeWarning: invalid value encountered in double_scalars
  mcc = cov_ytyp / np.sqrt(cov_ytyt * cov_ypyp)
/home/genaro/Proyectos/Multiomics/Survival_analysis/venv/lib/python3.7/site-packages/sklearn/metrics/_classification.py:846: RuntimeWarning: invalid value encountered in double_scalars
  mcc = cov_ytyp / np.sqrt(cov_ytyt * cov_ypyp)
/home/genaro/Proyectos/Multiomics/Survival_analysis/venv/lib/python3.7/site-packages/sklearn/metrics/_classification.py:846: RuntimeWarning: invalid value encountered in double_scalars
  mcc = cov_ytyp / np.sqrt(cov_ytyt * cov_ypyp)
/home/genaro/Proyectos/Multiomics/Survival_analysis/venv/lib/python3.7/site-packages/sklearn/metrics/_classification.py:846: RuntimeWarning: invalid value encountered in double_scalars
  mcc = cov_ytyp / np.sqrt(cov_ytyt * cov_ypyp)
/home/genaro/Proyectos/Multiomics/Survival_analysis/venv/lib/python3.7/site-packages/sklearn/metrics/_classification.py:846: RuntimeWarning: invalid value encountered in double_scalars
  mcc = cov_ytyp / np.sqrt(cov_ytyt * cov_ypyp)
Binary Black Hole con 25 iteraciones y 10 estrellas terminado en 747.5694043636322 segundos
Despues de 100 corridas con el subset se obtuvo de "make_scorer(matthews_corrcoef)" -> 0.5824257486523244 ± 0.018466838098849227
Corrida independiente nro 2
/home/genaro/Proyectos/Multiomics/Survival_analysis/venv/lib/python3.7/site-packages/sklearn/metrics/_classification.py:846: RuntimeWarning: invalid value encountered in double_scalars
  mcc = cov_ytyp / np.sqrt(cov_ytyt * cov_ypyp)
/home/genaro/Proyectos/Multiomics/Survival_analysis/venv/lib/python3.7/site-packages/sklearn/metrics/_classification.py:846: RuntimeWarning: invalid value encountered in double_scalars
  mcc = cov_ytyp / np.sqrt(cov_ytyt * cov_ypyp)
/home/genaro/Proyectos/Multiomics/Survival_analysis/venv/lib/python3.7/site-packages/sklearn/metrics/_classification.py:846: RuntimeWarning: invalid value encountered in double_scalars
  mcc = cov_ytyp / np.sqrt(cov_ytyt * cov_ypyp)
/home/genaro/Proyectos/Multiomics/Survival_analysis/venv/lib/python3.7/site-packages/sklearn/metrics/_classification.py:846: RuntimeWarning: invalid value encountered in double_scalars
  mcc = cov_ytyp / np.sqrt(cov_ytyt * cov_ypyp)
/home/genaro/Proyectos/Multiomics/Survival_analysis/venv/lib/python3.7/site-packages/sklearn/metrics/_classification.py:846: RuntimeWarning: invalid value encountered in double_scalars
  mcc = cov_ytyp / np.sqrt(cov_ytyt * cov_ypyp)
/home/genaro/Proyectos/Multiomics/Survival_analysis/venv/lib/python3.7/site-packages/sklearn/metrics/_classification.py:846: RuntimeWarning: invalid value encountered in double_scalars
  mcc = cov_ytyp / np.sqrt(cov_ytyt * cov_ypyp)
/home/genaro/Proyectos/Multiomics/Survival_analysis/venv/lib/python3.7/site-packages/sklearn/metrics/_classification.py:846: RuntimeWarning: invalid value encountered in double_scalars
  mcc = cov_ytyp / np.sqrt(cov_ytyt * cov_ypyp)
/home/genaro/Proyectos/Multiomics/Survival_analysis/venv/lib/python3.7/site-packages/sklearn/metrics/_classification.py:846: RuntimeWarning: invalid value encountered in double_scalars
  mcc = cov_ytyp / np.sqrt(cov_ytyt * cov_ypyp)
/home/genaro/Proyectos/Multiomics/Survival_analysis/venv/lib/python3.7/site-packages/sklearn/metrics/_classification.py:846: RuntimeWarning: invalid value encountered in double_scalars
  mcc = cov_ytyp / np.sqrt(cov_ytyt * cov_ypyp)
/home/genaro/Proyectos/Multiomics/Survival_analysis/venv/lib/python3.7/site-packages/sklearn/metrics/_classification.py:846: RuntimeWarning: invalid value encountered in double_scalars
  mcc = cov_ytyp / np.sqrt(cov_ytyt * cov_ypyp)
/home/genaro/Proyectos/Multiomics/Survival_analysis/venv/lib/python3.7/site-packages/sklearn/metrics/_classification.py:846: RuntimeWarning: invalid value encountered in double_scalars
  mcc = cov_ytyp / np.sqrt(cov_ytyt * cov_ypyp)
/home/genaro/Proyectos/Multiomics/Survival_analysis/venv/lib/python3.7/site-packages/sklearn/metrics/_classification.py:846: RuntimeWarning: invalid value encountered in double_scalars
  mcc = cov_ytyp / np.sqrt(cov_ytyt * cov_ypyp)
/home/genaro/Proyectos/Multiomics/Survival_analysis/venv/lib/python3.7/site-packages/sklearn/metrics/_classification.py:846: RuntimeWarning: invalid value encountered in double_scalars
  mcc = cov_ytyp / np.sqrt(cov_ytyt * cov_ypyp)
/home/genaro/Proyectos/Multiomics/Survival_analysis/venv/lib/python3.7/site-packages/sklearn/metrics/_classification.py:846: RuntimeWarning: invalid value encountered in double_scalars
  mcc = cov_ytyp / np.sqrt(cov_ytyt * cov_ypyp)
/home/genaro/Proyectos/Multiomics/Survival_analysis/venv/lib/python3.7/site-packages/sklearn/metrics/_classification.py:846: RuntimeWarning: invalid value encountered in double_scalars
  mcc = cov_ytyp / np.sqrt(cov_ytyt * cov_ypyp)
/home/genaro/Proyectos/Multiomics/Survival_analysis/venv/lib/python3.7/site-packages/sklearn/metrics/_classification.py:846: RuntimeWarning: invalid value encountered in double_scalars
  mcc = cov_ytyp / np.sqrt(cov_ytyt * cov_ypyp)
/home/genaro/Proyectos/Multiomics/Survival_analysis/venv/lib/python3.7/site-packages/sklearn/metrics/_classification.py:846: RuntimeWarning: invalid value encountered in double_scalars
  mcc = cov_ytyp / np.sqrt(cov_ytyt * cov_ypyp)
Binary Black Hole con 25 iteraciones y 10 estrellas terminado en 745.1233229637146 segundos
Despues de 100 corridas con el subset se obtuvo de "make_scorer(matthews_corrcoef)" -> 0.5130781721823986 ± 0.024820211674149908
Corrida independiente nro 3
/home/genaro/Proyectos/Multiomics/Survival_analysis/venv/lib/python3.7/site-packages/sklearn/metrics/_classification.py:846: RuntimeWarning: invalid value encountered in double_scalars
  mcc = cov_ytyp / np.sqrt(cov_ytyt * cov_ypyp)
/home/genaro/Proyectos/Multiomics/Survival_analysis/venv/lib/python3.7/site-packages/sklearn/metrics/_classification.py:846: RuntimeWarning: invalid value encountered in double_scalars
  mcc = cov_ytyp / np.sqrt(cov_ytyt * cov_ypyp)
/home/genaro/Proyectos/Multiomics/Survival_analysis/venv/lib/python3.7/site-packages/sklearn/metrics/_classification.py:846: RuntimeWarning: invalid value encountered in double_scalars
  mcc = cov_ytyp / np.sqrt(cov_ytyt * cov_ypyp)
/home/genaro/Proyectos/Multiomics/Survival_analysis/venv/lib/python3.7/site-packages/sklearn/metrics/_classification.py:846: RuntimeWarning: invalid value encountered in double_scalars
  mcc = cov_ytyp / np.sqrt(cov_ytyt * cov_ypyp)
/home/genaro/Proyectos/Multiomics/Survival_analysis/venv/lib/python3.7/site-packages/sklearn/metrics/_classification.py:846: RuntimeWarning: invalid value encountered in double_scalars
  mcc = cov_ytyp / np.sqrt(cov_ytyt * cov_ypyp)
/home/genaro/Proyectos/Multiomics/Survival_analysis/venv/lib/python3.7/site-packages/sklearn/metrics/_classification.py:846: RuntimeWarning: invalid value encountered in double_scalars
  mcc = cov_ytyp / np.sqrt(cov_ytyt * cov_ypyp)
/home/genaro/Proyectos/Multiomics/Survival_analysis/venv/lib/python3.7/site-packages/sklearn/metrics/_classification.py:846: RuntimeWarning: invalid value encountered in double_scalars
  mcc = cov_ytyp / np.sqrt(cov_ytyt * cov_ypyp)
/home/genaro/Proyectos/Multiomics/Survival_analysis/venv/lib/python3.7/site-packages/sklearn/metrics/_classification.py:846: RuntimeWarning: invalid value encountered in double_scalars
  mcc = cov_ytyp / np.sqrt(cov_ytyt * cov_ypyp)
/home/genaro/Proyectos/Multiomics/Survival_analysis/venv/lib/python3.7/site-packages/sklearn/metrics/_classification.py:846: RuntimeWarning: invalid value encountered in double_scalars
  mcc = cov_ytyp / np.sqrt(cov_ytyt * cov_ypyp)
/home/genaro/Proyectos/Multiomics/Survival_analysis/venv/lib/python3.7/site-packages/sklearn/metrics/_classification.py:846: RuntimeWarning: invalid value encountered in double_scalars
  mcc = cov_ytyp / np.sqrt(cov_ytyt * cov_ypyp)
/home/genaro/Proyectos/Multiomics/Survival_analysis/venv/lib/python3.7/site-packages/sklearn/metrics/_classification.py:846: RuntimeWarning: invalid value encountered in double_scalars
  mcc = cov_ytyp / np.sqrt(cov_ytyt * cov_ypyp)
/home/genaro/Proyectos/Multiomics/Survival_analysis/venv/lib/python3.7/site-packages/sklearn/metrics/_classification.py:846: RuntimeWarning: invalid value encountered in double_scalars
  mcc = cov_ytyp / np.sqrt(cov_ytyt * cov_ypyp)
/home/genaro/Proyectos/Multiomics/Survival_analysis/venv/lib/python3.7/site-packages/sklearn/metrics/_classification.py:846: RuntimeWarning: invalid value encountered in double_scalars
  mcc = cov_ytyp / np.sqrt(cov_ytyt * cov_ypyp)
/home/genaro/Proyectos/Multiomics/Survival_analysis/venv/lib/python3.7/site-packages/sklearn/metrics/_classification.py:846: RuntimeWarning: invalid value encountered in double_scalars
  mcc = cov_ytyp / np.sqrt(cov_ytyt * cov_ypyp)
/home/genaro/Proyectos/Multiomics/Survival_analysis/venv/lib/python3.7/site-packages/sklearn/metrics/_classification.py:846: RuntimeWarning: invalid value encountered in double_scalars
  mcc = cov_ytyp / np.sqrt(cov_ytyt * cov_ypyp)
/home/genaro/Proyectos/Multiomics/Survival_analysis/venv/lib/python3.7/site-packages/sklearn/metrics/_classification.py:846: RuntimeWarning: invalid value encountered in double_scalars
  mcc = cov_ytyp / np.sqrt(cov_ytyt * cov_ypyp)
/home/genaro/Proyectos/Multiomics/Survival_analysis/venv/lib/python3.7/site-packages/sklearn/metrics/_classification.py:846: RuntimeWarning: invalid value encountered in double_scalars
  mcc = cov_ytyp / np.sqrt(cov_ytyt * cov_ypyp)
/home/genaro/Proyectos/Multiomics/Survival_analysis/venv/lib/python3.7/site-packages/sklearn/metrics/_classification.py:846: RuntimeWarning: invalid value encountered in double_scalars
  mcc = cov_ytyp / np.sqrt(cov_ytyt * cov_ypyp)
/home/genaro/Proyectos/Multiomics/Survival_analysis/venv/lib/python3.7/site-packages/sklearn/metrics/_classification.py:846: RuntimeWarning: invalid value encountered in double_scalars
  mcc = cov_ytyp / np.sqrt(cov_ytyt * cov_ypyp)
/home/genaro/Proyectos/Multiomics/Survival_analysis/venv/lib/python3.7/site-packages/sklearn/metrics/_classification.py:846: RuntimeWarning: invalid value encountered in double_scalars
  mcc = cov_ytyp / np.sqrt(cov_ytyt * cov_ypyp)
/home/genaro/Proyectos/Multiomics/Survival_analysis/venv/lib/python3.7/site-packages/sklearn/metrics/_classification.py:846: RuntimeWarning: invalid value encountered in double_scalars
  mcc = cov_ytyp / np.sqrt(cov_ytyt * cov_ypyp)
/home/genaro/Proyectos/Multiomics/Survival_analysis/venv/lib/python3.7/site-packages/sklearn/metrics/_classification.py:846: RuntimeWarning: invalid value encountered in double_scalars
  mcc = cov_ytyp / np.sqrt(cov_ytyt * cov_ypyp)
/home/genaro/Proyectos/Multiomics/Survival_analysis/venv/lib/python3.7/site-packages/sklearn/metrics/_classification.py:846: RuntimeWarning: invalid value encountered in double_scalars
  mcc = cov_ytyp / np.sqrt(cov_ytyt * cov_ypyp)
/home/genaro/Proyectos/Multiomics/Survival_analysis/venv/lib/python3.7/site-packages/sklearn/metrics/_classification.py:846: RuntimeWarning: invalid value encountered in double_scalars
  mcc = cov_ytyp / np.sqrt(cov_ytyt * cov_ypyp)
/home/genaro/Proyectos/Multiomics/Survival_analysis/venv/lib/python3.7/site-packages/sklearn/metrics/_classification.py:846: RuntimeWarning: invalid value encountered in double_scalars
  mcc = cov_ytyp / np.sqrt(cov_ytyt * cov_ypyp)
/home/genaro/Proyectos/Multiomics/Survival_analysis/venv/lib/python3.7/site-packages/sklearn/metrics/_classification.py:846: RuntimeWarning: invalid value encountered in double_scalars
  mcc = cov_ytyp / np.sqrt(cov_ytyt * cov_ypyp)
Binary Black Hole con 25 iteraciones y 10 estrellas terminado en 743.7718782424927 segundos
Despues de 100 corridas con el subset se obtuvo de "make_scorer(matthews_corrcoef)" -> 0.47267317048120155 ± 0.030945014726840952
Corrida independiente nro 4
/home/genaro/Proyectos/Multiomics/Survival_analysis/venv/lib/python3.7/site-packages/sklearn/metrics/_classification.py:846: RuntimeWarning: invalid value encountered in double_scalars
  mcc = cov_ytyp / np.sqrt(cov_ytyt * cov_ypyp)
/home/genaro/Proyectos/Multiomics/Survival_analysis/venv/lib/python3.7/site-packages/sklearn/metrics/_classification.py:846: RuntimeWarning: invalid value encountered in double_scalars
  mcc = cov_ytyp / np.sqrt(cov_ytyt * cov_ypyp)
/home/genaro/Proyectos/Multiomics/Survival_analysis/venv/lib/python3.7/site-packages/sklearn/metrics/_classification.py:846: RuntimeWarning: invalid value encountered in double_scalars
  mcc = cov_ytyp / np.sqrt(cov_ytyt * cov_ypyp)
/home/genaro/Proyectos/Multiomics/Survival_analysis/venv/lib/python3.7/site-packages/sklearn/metrics/_classification.py:846: RuntimeWarning: invalid value encountered in double_scalars
  mcc = cov_ytyp / np.sqrt(cov_ytyt * cov_ypyp)
/home/genaro/Proyectos/Multiomics/Survival_analysis/venv/lib/python3.7/site-packages/sklearn/metrics/_classification.py:846: RuntimeWarning: invalid value encountered in double_scalars
  mcc = cov_ytyp / np.sqrt(cov_ytyt * cov_ypyp)
/home/genaro/Proyectos/Multiomics/Survival_analysis/venv/lib/python3.7/site-packages/sklearn/metrics/_classification.py:846: RuntimeWarning: invalid value encountered in double_scalars
  mcc = cov_ytyp / np.sqrt(cov_ytyt * cov_ypyp)
/home/genaro/Proyectos/Multiomics/Survival_analysis/venv/lib/python3.7/site-packages/sklearn/metrics/_classification.py:846: RuntimeWarning: invalid value encountered in double_scalars
  mcc = cov_ytyp / np.sqrt(cov_ytyt * cov_ypyp)
/home/genaro/Proyectos/Multiomics/Survival_analysis/venv/lib/python3.7/site-packages/sklearn/metrics/_classification.py:846: RuntimeWarning: invalid value encountered in double_scalars
  mcc = cov_ytyp / np.sqrt(cov_ytyt * cov_ypyp)
/home/genaro/Proyectos/Multiomics/Survival_analysis/venv/lib/python3.7/site-packages/sklearn/metrics/_classification.py:846: RuntimeWarning: invalid value encountered in double_scalars
  mcc = cov_ytyp / np.sqrt(cov_ytyt * cov_ypyp)
/home/genaro/Proyectos/Multiomics/Survival_analysis/venv/lib/python3.7/site-packages/sklearn/metrics/_classification.py:846: RuntimeWarning: invalid value encountered in double_scalars
  mcc = cov_ytyp / np.sqrt(cov_ytyt * cov_ypyp)
/home/genaro/Proyectos/Multiomics/Survival_analysis/venv/lib/python3.7/site-packages/sklearn/metrics/_classification.py:846: RuntimeWarning: invalid value encountered in double_scalars
  mcc = cov_ytyp / np.sqrt(cov_ytyt * cov_ypyp)
/home/genaro/Proyectos/Multiomics/Survival_analysis/venv/lib/python3.7/site-packages/sklearn/metrics/_classification.py:846: RuntimeWarning: invalid value encountered in double_scalars
  mcc = cov_ytyp / np.sqrt(cov_ytyt * cov_ypyp)
/home/genaro/Proyectos/Multiomics/Survival_analysis/venv/lib/python3.7/site-packages/sklearn/metrics/_classification.py:846: RuntimeWarning: invalid value encountered in double_scalars
  mcc = cov_ytyp / np.sqrt(cov_ytyt * cov_ypyp)
Binary Black Hole con 25 iteraciones y 10 estrellas terminado en 742.8786878585815 segundos
Despues de 100 corridas con el subset se obtuvo de "make_scorer(matthews_corrcoef)" -> 0.5243522244624592 ± 0.03373559115210334
Corrida independiente nro 5
/home/genaro/Proyectos/Multiomics/Survival_analysis/venv/lib/python3.7/site-packages/sklearn/metrics/_classification.py:846: RuntimeWarning: invalid value encountered in double_scalars
  mcc = cov_ytyp / np.sqrt(cov_ytyt * cov_ypyp)
/home/genaro/Proyectos/Multiomics/Survival_analysis/venv/lib/python3.7/site-packages/sklearn/metrics/_classification.py:846: RuntimeWarning: invalid value encountered in double_scalars
  mcc = cov_ytyp / np.sqrt(cov_ytyt * cov_ypyp)
Binary Black Hole con 25 iteraciones y 10 estrellas terminado en 751.9458599090576 segundos
Despues de 100 corridas con el subset se obtuvo de "make_scorer(matthews_corrcoef)" -> 0.6352997119734691 ± 0.02469805990822526
Features obtenidos por el BBHA para el dataset Breast (make_scorer(matthews_corrcoef) = 0.6352997119734691) ->
['Contig5690_RC' 'AL080059' 'Contig26291_RC' 'Contig21865_RC'
 'Contig45932_RC' 'AL133575' 'NM_006658' 'Contig15219_RC' 'NM_018308']
Metrica "make_scorer(matthews_corrcoef)" | Mean -> 0.546 ± 0.057
Dataset Ovarian
	Samples (filas) -> 253 | Features (columnas) -> 15154
	Numero de clases -> 2
Top 50 Features obtenidos por Chi Square -> 
['MZ245.24466' 'MZ244.95245' 'MZ245.53704' 'MZ244.66041' 'MZ244.36855'
 'MZ245.8296' 'MZ246.12233' 'MZ246.41524' 'MZ246.70832' 'MZ247.295'
 'MZ247.00158' 'MZ247.58861' 'MZ247.88239' 'MZ244.07686' 'MZ224.65076'
 'MZ224.37109' 'MZ224.9306' 'MZ463.95962' 'MZ464.36174' 'MZ224.09159'
 'MZ463.55767' 'MZ223.81227' 'MZ221.86191' 'MZ464.76404' 'MZ220.75125'
 'MZ248.17634' 'MZ8011.6519' 'MZ8009.9813' 'MZ8013.3226' 'MZ8014.9935'
 'MZ8008.3109' 'MZ8016.6646' 'MZ225.21061' 'MZ8006.6407' 'MZ220.47402'
 'MZ8004.9707' 'MZ8018.3359' 'MZ417.73207' 'MZ243.78535' 'MZ221.58398'
 'MZ25.589892' 'MZ8003.3008' 'MZ8020.0073' 'MZ463.1559' 'MZ8001.6311'
 'MZ8021.6789' 'MZ29.001246' 'MZ465.16651' 'MZ262.18857' 'MZ418.11364']
Corrida independiente nro 1
Binary Black Hole con 25 iteraciones y 10 estrellas terminado en 789.8466815948486 segundos
Despues de 100 corridas con el subset se obtuvo de "make_scorer(specificity)" -> 0.9660000000000001 ± 0.0026387426860084166
Corrida independiente nro 2
Binary Black Hole con 25 iteraciones y 10 estrellas terminado en 788.7620279788971 segundos
Despues de 100 corridas con el subset se obtuvo de "make_scorer(specificity)" -> 0.9666666666666667 ± 1.1102230246251565e-16
Corrida independiente nro 3
Binary Black Hole con 25 iteraciones y 10 estrellas terminado en 787.9859812259674 segundos
Despues de 100 corridas con el subset se obtuvo de "make_scorer(specificity)" -> 0.9632222222222222 ± 0.0053736899063749795
Corrida independiente nro 4
Binary Black Hole con 25 iteraciones y 10 estrellas terminado en 793.1892189979553 segundos
Despues de 100 corridas con el subset se obtuvo de "make_scorer(specificity)" -> 0.9607777777777775 ± 0.005545546539318993
Corrida independiente nro 5
Binary Black Hole con 25 iteraciones y 10 estrellas terminado en 799.7427246570587 segundos
Despues de 100 corridas con el subset se obtuvo de "make_scorer(specificity)" -> 0.9666666666666667 ± 1.1102230246251565e-16
Features obtenidos por el BBHA para el dataset Ovarian (make_scorer(specificity) = 0.9666666666666667) ->
['MZ244.95245' 'MZ245.53704' 'MZ244.66041' 'MZ247.00158' 'MZ244.07686'
 'MZ8014.9935' 'MZ8008.3109' 'MZ8004.9707' 'MZ8018.3359' 'MZ262.18857']
Metrica "make_scorer(specificity)" | Mean -> 0.965 ± 0.002
Dataset Leukemia
	Samples (filas) -> 72 | Features (columnas) -> 7129
	Numero de clases -> 2
Top 50 Features obtenidos por Chi Square -> 
['M27891_at' 'Y00787_s_at' 'U46499_at' 'D88422_at' 'M19507_at' 'X17042_at'
 'M23197_at' 'M84526_at' 'M16038_at' 'X95735_at' 'L09209_s_at' 'M63138_at'
 'X14008_rna1_f_at' 'M96326_rna1_at' 'K01396_at' 'M19045_f_at'
 'M28130_rna1_s_at' 'D88270_at' 'X16546_at' 'J03801_f_at' 'M11722_at'
 'X62320_at' 'M22960_at' 'M81695_s_at' 'M57710_at' 'M21119_s_at'
 'HG3494-HT3688_at' 'U05259_rna1_at' 'X82240_rna1_at' 'M92287_at'
 'M33195_at' 'M15395_at' 'U16306_at' 'U02020_at' 'HG2981-HT3127_s_at'
 'M98399_s_at' 'X64072_s_at' 'U46751_at' 'J03909_at' 'M63379_at'
 'M11147_at' 'J04990_at' 'X59417_at' 'X61587_at' 'D49950_at'
 'U50136_rna1_at' 'L09717_at' 'M83652_s_at' 'M31523_at' 'M33493_s_at']
Corrida independiente nro 1
Binary Black Hole con 25 iteraciones y 10 estrellas terminado en 715.3642671108246 segundos
Despues de 100 corridas con el subset se obtuvo de "make_scorer(specificity)" -> 0.9914000000000002 ± 0.009901515035589205
Corrida independiente nro 2
Binary Black Hole con 25 iteraciones y 10 estrellas terminado en 713.3672761917114 segundos
Despues de 100 corridas con el subset se obtuvo de "make_scorer(specificity)" -> 0.997 ± 0.0071414284285428176
Corrida independiente nro 3
Binary Black Hole con 25 iteraciones y 10 estrellas terminado en 713.1914374828339 segundos
Despues de 100 corridas con el subset se obtuvo de "make_scorer(specificity)" -> 1.0 ± 0.0
Corrida independiente nro 4
Binary Black Hole con 25 iteraciones y 10 estrellas terminado en 719.7694563865662 segundos
Despues de 100 corridas con el subset se obtuvo de "make_scorer(specificity)" -> 1.0 ± 0.0
Corrida independiente nro 5
Binary Black Hole con 25 iteraciones y 10 estrellas terminado en 717.0363550186157 segundos
Despues de 100 corridas con el subset se obtuvo de "make_scorer(specificity)" -> 1.0 ± 0.0
Features obtenidos por el BBHA para el dataset Leukemia (make_scorer(specificity) = 1.0) ->
['Y00787_s_at' 'M84526_at' 'M19045_f_at' 'D88270_at' 'M22960_at'
 'J04990_at' 'M31523_at']
Metrica "make_scorer(specificity)" | Mean -> 0.998 ± 0.003
Dataset Breast
	Samples (filas) -> 97 | Features (columnas) -> 24481
	Numero de clases -> 2
Top 50 Features obtenidos por Chi Square -> 
['NM_014095' 'AL133616' 'Contig2087_RC' 'Contig23158_RC' 'Contig8224_RC'
 'NM_015832' 'Contig5690_RC' 'Contig9813_RC' 'Contig14581_RC'
 'Contig35256' 'NM_018580' 'NM_020974' 'NM_006217' 'Contig33441_RC'
 'Contig43019_RC' 'NM_007252' 'AF119904' 'NM_018432' 'NM_016529' 'L17325'
 'Contig15628_RC' 'AL080059' 'Contig26291_RC' 'NM_014625' 'Contig35903_RC'
 'NM_017658' 'NM_006794' 'Contig21865_RC' 'Contig47635_RC'
 'Contig55725_RC' 'Contig36093_RC' 'Contig45932_RC' 'Contig43226'
 'Contig17394_RC' 'NM_014926' 'NM_016298' 'Contig39638_RC' 'AL133575'
 'Contig42942_RC' 'AK000053' 'NM_006174' 'AL117508' 'AB032960'
 'Contig14701_RC' 'Contig39984' 'NM_006658' 'Contig38855_RC'
 'Contig15219_RC' 'NM_018308' 'Contig27326_RC']
Corrida independiente nro 1
Binary Black Hole con 25 iteraciones y 10 estrellas terminado en 743.7712755203247 segundos
Despues de 100 corridas con el subset se obtuvo de "make_scorer(specificity)" -> 0.7095999999999999 ± 0.022357101779971404
Corrida independiente nro 2
Binary Black Hole con 25 iteraciones y 10 estrellas terminado en 747.2288348674774 segundos
Despues de 100 corridas con el subset se obtuvo de "make_scorer(specificity)" -> 0.77225 ± 0.023349250523303743
Corrida independiente nro 3
Binary Black Hole con 25 iteraciones y 10 estrellas terminado en 746.0682950019836 segundos
Despues de 100 corridas con el subset se obtuvo de "make_scorer(specificity)" -> 0.7276000000000002 ± 0.015755633912984915
Corrida independiente nro 4
Binary Black Hole con 25 iteraciones y 10 estrellas terminado en 746.7009246349335 segundos
Despues de 100 corridas con el subset se obtuvo de "make_scorer(specificity)" -> 0.7147999999999999 ± 0.02435077000835906
Corrida independiente nro 5
Binary Black Hole con 25 iteraciones y 10 estrellas terminado en 752.6380412578583 segundos
Despues de 100 corridas con el subset se obtuvo de "make_scorer(specificity)" -> 0.7663499999999999 ± 0.015570083493674634
Features obtenidos por el BBHA para el dataset Breast (make_scorer(specificity) = 0.77225) ->
['AL133616' 'Contig8224_RC' 'Contig5690_RC' 'NM_018580' 'NM_020974'
 'AF119904' 'Contig35903_RC' 'NM_006794' 'AB032960' 'Contig27326_RC']
Metrica "make_scorer(specificity)" | Mean -> 0.738 ± 0.026
Dataset Ovarian
	Samples (filas) -> 253 | Features (columnas) -> 15154
	Numero de clases -> 2
Top 50 Features obtenidos por Chi Square -> 
['MZ245.24466' 'MZ244.95245' 'MZ245.53704' 'MZ244.66041' 'MZ244.36855'
 'MZ245.8296' 'MZ246.12233' 'MZ246.41524' 'MZ246.70832' 'MZ247.295'
 'MZ247.00158' 'MZ247.58861' 'MZ247.88239' 'MZ244.07686' 'MZ224.65076'
 'MZ224.37109' 'MZ224.9306' 'MZ463.95962' 'MZ464.36174' 'MZ224.09159'
 'MZ463.55767' 'MZ223.81227' 'MZ221.86191' 'MZ464.76404' 'MZ220.75125'
 'MZ248.17634' 'MZ8011.6519' 'MZ8009.9813' 'MZ8013.3226' 'MZ8014.9935'
 'MZ8008.3109' 'MZ8016.6646' 'MZ225.21061' 'MZ8006.6407' 'MZ220.47402'
 'MZ8004.9707' 'MZ8018.3359' 'MZ417.73207' 'MZ243.78535' 'MZ221.58398'
 'MZ25.589892' 'MZ8003.3008' 'MZ8020.0073' 'MZ463.1559' 'MZ8001.6311'
 'MZ8021.6789' 'MZ29.001246' 'MZ465.16651' 'MZ262.18857' 'MZ418.11364']
Corrida independiente nro 1
Binary Black Hole con 25 iteraciones y 10 estrellas terminado en 782.3941335678101 segundos
Despues de 100 corridas con el subset se obtuvo de "accuracy" -> 0.9822338461538461 ± 0.0022256684389190327
Corrida independiente nro 2
Binary Black Hole con 25 iteraciones y 10 estrellas terminado en 791.1397864818573 segundos
Despues de 100 corridas con el subset se obtuvo de "accuracy" -> 0.9837538461538462 ± 0.0012000000000000346
Corrida independiente nro 3
Binary Black Hole con 25 iteraciones y 10 estrellas terminado en 794.1794130802155 segundos
Despues de 100 corridas con el subset se obtuvo de "accuracy" -> 0.9838338461538464 ± 0.0010851727973000742
Corrida independiente nro 4
Binary Black Hole con 25 iteraciones y 10 estrellas terminado en 793.4922530651093 segundos
Despues de 100 corridas con el subset se obtuvo de "accuracy" -> 0.979553846153846 ± 0.0014282856857086108
Corrida independiente nro 5
Binary Black Hole con 25 iteraciones y 10 estrellas terminado en 780.8201162815094 segundos
Despues de 100 corridas con el subset se obtuvo de "accuracy" -> 0.9789784615384616 ± 0.0032039561344129816
Features obtenidos por el BBHA para el dataset Ovarian (accuracy = 0.9838338461538464) ->
['MZ244.95245' 'MZ244.66041' 'MZ245.8296' 'MZ224.09159' 'MZ221.86191'
 'MZ8006.6407' 'MZ8001.6311' 'MZ262.18857']
Metrica "accuracy" | Mean -> 0.982 ± 0.002
Dataset Leukemia
	Samples (filas) -> 72 | Features (columnas) -> 7129
	Numero de clases -> 2
Top 50 Features obtenidos por Chi Square -> 
['M27891_at' 'Y00787_s_at' 'U46499_at' 'D88422_at' 'M19507_at' 'X17042_at'
 'M23197_at' 'M84526_at' 'M16038_at' 'X95735_at' 'L09209_s_at' 'M63138_at'
 'X14008_rna1_f_at' 'M96326_rna1_at' 'K01396_at' 'M19045_f_at'
 'M28130_rna1_s_at' 'D88270_at' 'X16546_at' 'J03801_f_at' 'M11722_at'
 'X62320_at' 'M22960_at' 'M81695_s_at' 'M57710_at' 'M21119_s_at'
 'HG3494-HT3688_at' 'U05259_rna1_at' 'X82240_rna1_at' 'M92287_at'
 'M33195_at' 'M15395_at' 'U16306_at' 'U02020_at' 'HG2981-HT3127_s_at'
 'M98399_s_at' 'X64072_s_at' 'U46751_at' 'J03909_at' 'M63379_at'
 'M11147_at' 'J04990_at' 'X59417_at' 'X61587_at' 'D49950_at'
 'U50136_rna1_at' 'L09717_at' 'M83652_s_at' 'M31523_at' 'M33493_s_at']
Corrida independiente nro 1
Binary Black Hole con 25 iteraciones y 10 estrellas terminado en 714.7347116470337 segundos
Despues de 100 corridas con el subset se obtuvo de "accuracy" -> 0.9848571428571427 ± 0.003392669167725107
Corrida independiente nro 2
Binary Black Hole con 25 iteraciones y 10 estrellas terminado en 717.6890275478363 segundos
Despues de 100 corridas con el subset se obtuvo de "accuracy" -> 0.9857142857142855 ± 2.220446049250313e-16
Corrida independiente nro 3